<?xml version="1.0" encoding="utf-8"  standalone="no"?>
<svg 
 width="600" height="480"
 viewBox="0 0 600 480"
 xmlns="http://www.w3.org/2000/svg"
 xmlns:xlink="http://www.w3.org/1999/xlink"
>

<title>Gnuplot</title>
<desc>Produced by GNUPLOT 5.2 patchlevel 2 </desc>

<g id="gnuplot_canvas">

<rect x="0" y="0" width="600" height="480" fill="#ffffff"/>
<defs>

	<circle id='gpDot' r='0.5' stroke-width='0.5'/>
	<path id='gpPt0' stroke-width='0.222' stroke='currentColor' d='M-1,0 h2 M0,-1 v2'/>
	<path id='gpPt1' stroke-width='0.222' stroke='currentColor' d='M-1,-1 L1,1 M1,-1 L-1,1'/>
	<path id='gpPt2' stroke-width='0.222' stroke='currentColor' d='M-1,0 L1,0 M0,-1 L0,1 M-1,-1 L1,1 M-1,1 L1,-1'/>
	<rect id='gpPt3' stroke-width='0.222' stroke='currentColor' x='-1' y='-1' width='2' height='2'/>
	<rect id='gpPt4' stroke-width='0.222' stroke='currentColor' fill='currentColor' x='-1' y='-1' width='2' height='2'/>
	<circle id='gpPt5' stroke-width='0.222' stroke='currentColor' cx='0' cy='0' r='1'/>
	<use xlink:href='#gpPt5' id='gpPt6' fill='currentColor' stroke='none'/>
	<path id='gpPt7' stroke-width='0.222' stroke='currentColor' d='M0,-1.33 L-1.33,0.67 L1.33,0.67 z'/>
	<use xlink:href='#gpPt7' id='gpPt8' fill='currentColor' stroke='none'/>
	<use xlink:href='#gpPt7' id='gpPt9' stroke='currentColor' transform='rotate(180)'/>
	<use xlink:href='#gpPt9' id='gpPt10' fill='currentColor' stroke='none'/>
	<use xlink:href='#gpPt3' id='gpPt11' stroke='currentColor' transform='rotate(45)'/>
	<use xlink:href='#gpPt11' id='gpPt12' fill='currentColor' stroke='none'/>
	<path id='gpPt13' stroke-width='0.222' stroke='currentColor' d='M0,1.330 L1.265,0.411 L0.782,-1.067 L-0.782,-1.076 L-1.265,0.411 z'/>
	<use xlink:href='#gpPt13' id='gpPt14' fill='currentColor' stroke='none'/>
	<filter id='textbox' filterUnits='objectBoundingBox' x='0' y='0' height='1' width='1'>
	  <feFlood flood-color='#FFFFFF' flood-opacity='1' result='bgnd'/>
	  <feComposite in='SourceGraphic' in2='bgnd' operator='atop'/>
	</filter>
	<filter id='greybox' filterUnits='objectBoundingBox' x='0' y='0' height='1' width='1'>
	  <feFlood flood-color='lightgrey' flood-opacity='1' result='grey'/>
	  <feComposite in='SourceGraphic' in2='grey' operator='atop'/>
	</filter>
</defs>
<g fill="none" color="#FFFFFF" stroke="currentColor" stroke-width="2.00" stroke-linecap="butt" stroke-linejoin="miter">
</g>
<g fill="none" color="black" stroke="currentColor" stroke-width="2.00" stroke-linecap="butt" stroke-linejoin="miter">
	<path stroke='black'  d='M71.9,382.9 L80.9,382.9 M575.0,382.9 L566.0,382.9  '/>	<g transform="translate(63.6,386.8)" stroke="none" fill="black" font-family="Arial" font-size="12.00"  text-anchor="end">
		<text><tspan font-family="Arial" >-1</tspan></text>
	</g>
</g>
<g fill="none" color="black" stroke="currentColor" stroke-width="2.00" stroke-linecap="butt" stroke-linejoin="miter">
	<path stroke='black'  d='M71.9,317.2 L80.9,317.2 M575.0,317.2 L566.0,317.2  '/>	<g transform="translate(63.6,321.1)" stroke="none" fill="black" font-family="Arial" font-size="12.00"  text-anchor="end">
		<text><tspan font-family="Arial" >-0.5</tspan></text>
	</g>
</g>
<g fill="none" color="black" stroke="currentColor" stroke-width="2.00" stroke-linecap="butt" stroke-linejoin="miter">
	<path stroke='black'  d='M71.9,251.4 L80.9,251.4 M575.0,251.4 L566.0,251.4  '/>	<g transform="translate(63.6,255.3)" stroke="none" fill="black" font-family="Arial" font-size="12.00"  text-anchor="end">
		<text><tspan font-family="Arial" > 0</tspan></text>
	</g>
</g>
<g fill="none" color="black" stroke="currentColor" stroke-width="2.00" stroke-linecap="butt" stroke-linejoin="miter">
	<path stroke='black'  d='M71.9,185.6 L80.9,185.6 M575.0,185.6 L566.0,185.6  '/>	<g transform="translate(63.6,189.5)" stroke="none" fill="black" font-family="Arial" font-size="12.00"  text-anchor="end">
		<text><tspan font-family="Arial" > 0.5</tspan></text>
	</g>
</g>
<g fill="none" color="black" stroke="currentColor" stroke-width="2.00" stroke-linecap="butt" stroke-linejoin="miter">
	<path stroke='black'  d='M71.9,119.9 L80.9,119.9 M575.0,119.9 L566.0,119.9  '/>	<g transform="translate(63.6,123.8)" stroke="none" fill="black" font-family="Arial" font-size="12.00"  text-anchor="end">
		<text><tspan font-family="Arial" > 1</tspan></text>
	</g>
</g>
<g fill="none" color="black" stroke="currentColor" stroke-width="2.00" stroke-linecap="butt" stroke-linejoin="miter">
	<path stroke='black'  d='M71.9,54.1 L80.9,54.1 M575.0,54.1 L566.0,54.1  '/>	<g transform="translate(63.6,58.0)" stroke="none" fill="black" font-family="Arial" font-size="12.00"  text-anchor="end">
		<text><tspan font-family="Arial" > 1.5</tspan></text>
	</g>
</g>
<g fill="none" color="black" stroke="currentColor" stroke-width="2.00" stroke-linecap="butt" stroke-linejoin="miter">
	<path stroke='black'  d='M71.9,422.4 L71.9,413.4 M71.9,54.1 L71.9,63.1  '/>	<g transform="translate(71.9,444.3)" stroke="none" fill="black" font-family="Arial" font-size="12.00"  text-anchor="middle">
		<text><tspan font-family="Arial" > 0</tspan></text>
	</g>
</g>
<g fill="none" color="black" stroke="currentColor" stroke-width="2.00" stroke-linecap="butt" stroke-linejoin="miter">
	<path stroke='black'  d='M125.1,422.4 L125.1,413.4 M125.1,54.1 L125.1,63.1  '/>	<g transform="translate(125.1,444.3)" stroke="none" fill="black" font-family="Arial" font-size="12.00"  text-anchor="middle">
		<text><tspan font-family="Arial" > 2</tspan></text>
	</g>
</g>
<g fill="none" color="black" stroke="currentColor" stroke-width="2.00" stroke-linecap="butt" stroke-linejoin="miter">
	<path stroke='black'  d='M178.4,422.4 L178.4,413.4 M178.4,54.1 L178.4,63.1  '/>	<g transform="translate(178.4,444.3)" stroke="none" fill="black" font-family="Arial" font-size="12.00"  text-anchor="middle">
		<text><tspan font-family="Arial" > 4</tspan></text>
	</g>
</g>
<g fill="none" color="black" stroke="currentColor" stroke-width="2.00" stroke-linecap="butt" stroke-linejoin="miter">
	<path stroke='black'  d='M231.6,422.4 L231.6,413.4 M231.6,54.1 L231.6,63.1  '/>	<g transform="translate(231.6,444.3)" stroke="none" fill="black" font-family="Arial" font-size="12.00"  text-anchor="middle">
		<text><tspan font-family="Arial" > 6</tspan></text>
	</g>
</g>
<g fill="none" color="black" stroke="currentColor" stroke-width="2.00" stroke-linecap="butt" stroke-linejoin="miter">
	<path stroke='black'  d='M284.9,422.4 L284.9,413.4 M284.9,54.1 L284.9,63.1  '/>	<g transform="translate(284.9,444.3)" stroke="none" fill="black" font-family="Arial" font-size="12.00"  text-anchor="middle">
		<text><tspan font-family="Arial" > 8</tspan></text>
	</g>
</g>
<g fill="none" color="black" stroke="currentColor" stroke-width="2.00" stroke-linecap="butt" stroke-linejoin="miter">
	<path stroke='black'  d='M338.1,422.4 L338.1,413.4 M338.1,54.1 L338.1,63.1  '/>	<g transform="translate(338.1,444.3)" stroke="none" fill="black" font-family="Arial" font-size="12.00"  text-anchor="middle">
		<text><tspan font-family="Arial" > 10</tspan></text>
	</g>
</g>
<g fill="none" color="black" stroke="currentColor" stroke-width="2.00" stroke-linecap="butt" stroke-linejoin="miter">
	<path stroke='black'  d='M391.3,422.4 L391.3,413.4 M391.3,54.1 L391.3,63.1  '/>	<g transform="translate(391.3,444.3)" stroke="none" fill="black" font-family="Arial" font-size="12.00"  text-anchor="middle">
		<text><tspan font-family="Arial" > 12</tspan></text>
	</g>
</g>
<g fill="none" color="black" stroke="currentColor" stroke-width="2.00" stroke-linecap="butt" stroke-linejoin="miter">
	<path stroke='black'  d='M444.6,422.4 L444.6,413.4 M444.6,54.1 L444.6,63.1  '/>	<g transform="translate(444.6,444.3)" stroke="none" fill="black" font-family="Arial" font-size="12.00"  text-anchor="middle">
		<text><tspan font-family="Arial" > 14</tspan></text>
	</g>
</g>
<g fill="none" color="black" stroke="currentColor" stroke-width="2.00" stroke-linecap="butt" stroke-linejoin="miter">
	<path stroke='black'  d='M497.8,422.4 L497.8,413.4 M497.8,54.1 L497.8,63.1  '/>	<g transform="translate(497.8,444.3)" stroke="none" fill="black" font-family="Arial" font-size="12.00"  text-anchor="middle">
		<text><tspan font-family="Arial" > 16</tspan></text>
	</g>
</g>
<g fill="none" color="black" stroke="currentColor" stroke-width="2.00" stroke-linecap="butt" stroke-linejoin="miter">
	<path stroke='black'  d='M551.0,422.4 L551.0,413.4 M551.0,54.1 L551.0,63.1  '/>	<g transform="translate(551.0,444.3)" stroke="none" fill="black" font-family="Arial" font-size="12.00"  text-anchor="middle">
		<text><tspan font-family="Arial" > 18</tspan></text>
	</g>
</g>
<g fill="none" color="black" stroke="currentColor" stroke-width="2.00" stroke-linecap="butt" stroke-linejoin="miter">
</g>
<g fill="none" color="black" stroke="currentColor" stroke-width="2.00" stroke-linecap="butt" stroke-linejoin="miter">
	<path stroke='black'  d='M71.9,54.1 L71.9,422.4 L575.0,422.4 L575.0,54.1 L71.9,54.1 Z  '/></g>
<g fill="none" color="black" stroke="currentColor" stroke-width="2.00" stroke-linecap="butt" stroke-linejoin="miter">
	<g transform="translate(16.3,238.3) rotate(270)" stroke="none" fill="black" font-family="Arial" font-size="12.00"  text-anchor="middle">
		<text><tspan font-family="Arial" >y</tspan></text>
	</g>
</g>
<g fill="none" color="black" stroke="currentColor" stroke-width="2.00" stroke-linecap="butt" stroke-linejoin="miter">
	<g transform="translate(323.4,471.3)" stroke="none" fill="black" font-family="Arial" font-size="12.00"  text-anchor="middle">
		<text><tspan font-family="Arial" >x</tspan></text>
	</g>
</g>
<g fill="none" color="black" stroke="currentColor" stroke-width="2.00" stroke-linecap="butt" stroke-linejoin="miter">
	<g transform="translate(323.4,31.0)" stroke="none" fill="black" font-family="Arial" font-size="12.00"  text-anchor="middle">
		<text><tspan font-family="Arial" >Linear interpolation (red dotted lines are exact)</tspan></text>
	</g>
</g>
	<g id="gnuplot_plot_1" ><title>Data</title>
<g fill="none" color="black" stroke="currentColor" stroke-width="2.00" stroke-linecap="butt" stroke-linejoin="miter">
	<g transform="translate(507.9,76.0)" stroke="none" fill="black" font-family="Arial" font-size="12.00"  text-anchor="end">
		<text><tspan font-family="Arial" >Data</tspan></text>
	</g>
</g>
<g fill="none" color="black" stroke="currentColor" stroke-width="2.00" stroke-linecap="butt" stroke-linejoin="miter">
	<use xlink:href='#gpPt6' transform='translate(71.9,119.9) scale(4.50)' color='rgb(148,   0, 211)'/>
	<use xlink:href='#gpPt6' transform='translate(88.1,143.4) scale(4.50)' color='rgb(148,   0, 211)'/>
	<use xlink:href='#gpPt6' transform='translate(104.3,205.7) scale(4.50)' color='rgb(148,   0, 211)'/>
	<use xlink:href='#gpPt6' transform='translate(120.5,284.4) scale(4.50)' color='rgb(148,   0, 211)'/>
	<use xlink:href='#gpPt6' transform='translate(136.6,351.2) scale(4.50)' color='rgb(148,   0, 211)'/>
	<use xlink:href='#gpPt6' transform='translate(152.8,382.3) scale(4.50)' color='rgb(148,   0, 211)'/>
	<use xlink:href='#gpPt6' transform='translate(169.0,366.4) scale(4.50)' color='rgb(148,   0, 211)'/>
	<use xlink:href='#gpPt6' transform='translate(185.2,309.3) scale(4.50)' color='rgb(148,   0, 211)'/>
	<use xlink:href='#gpPt6' transform='translate(201.4,231.5) scale(4.50)' color='rgb(148,   0, 211)'/>
	<use xlink:href='#gpPt6' transform='translate(217.6,160.8) scale(4.50)' color='rgb(148,   0, 211)'/>
	<use xlink:href='#gpPt6' transform='translate(233.8,122.6) scale(4.50)' color='rgb(148,   0, 211)'/>
	<use xlink:href='#gpPt6' transform='translate(249.9,130.5) scale(4.50)' color='rgb(148,   0, 211)'/>
	<use xlink:href='#gpPt6' transform='translate(266.1,181.8) scale(4.50)' color='rgb(148,   0, 211)'/>
	<use xlink:href='#gpPt6' transform='translate(282.3,258.1) scale(4.50)' color='rgb(148,   0, 211)'/>
	<use xlink:href='#gpPt6' transform='translate(298.5,331.9) scale(4.50)' color='rgb(148,   0, 211)'/>
	<use xlink:href='#gpPt6' transform='translate(314.7,376.9) scale(4.50)' color='rgb(148,   0, 211)'/>
	<use xlink:href='#gpPt6' transform='translate(330.9,376.9) scale(4.50)' color='rgb(148,   0, 211)'/>
	<use xlink:href='#gpPt6' transform='translate(347.1,331.9) scale(4.50)' color='rgb(148,   0, 211)'/>
	<use xlink:href='#gpPt6' transform='translate(363.2,258.1) scale(4.50)' color='rgb(148,   0, 211)'/>
	<use xlink:href='#gpPt6' transform='translate(379.4,181.8) scale(4.50)' color='rgb(148,   0, 211)'/>
	<use xlink:href='#gpPt6' transform='translate(395.6,130.5) scale(4.50)' color='rgb(148,   0, 211)'/>
	<use xlink:href='#gpPt6' transform='translate(411.8,122.6) scale(4.50)' color='rgb(148,   0, 211)'/>
	<use xlink:href='#gpPt6' transform='translate(428.0,160.8) scale(4.50)' color='rgb(148,   0, 211)'/>
	<use xlink:href='#gpPt6' transform='translate(444.2,231.5) scale(4.50)' color='rgb(148,   0, 211)'/>
	<use xlink:href='#gpPt6' transform='translate(460.4,309.3) scale(4.50)' color='rgb(148,   0, 211)'/>
	<use xlink:href='#gpPt6' transform='translate(476.5,366.4) scale(4.50)' color='rgb(148,   0, 211)'/>
	<use xlink:href='#gpPt6' transform='translate(492.7,382.3) scale(4.50)' color='rgb(148,   0, 211)'/>
	<use xlink:href='#gpPt6' transform='translate(508.9,351.2) scale(4.50)' color='rgb(148,   0, 211)'/>
	<use xlink:href='#gpPt6' transform='translate(525.1,284.4) scale(4.50)' color='rgb(148,   0, 211)'/>
	<use xlink:href='#gpPt6' transform='translate(541.3,205.7) scale(4.50)' color='rgb(148,   0, 211)'/>
	<use xlink:href='#gpPt6' transform='translate(557.5,143.4) scale(4.50)' color='rgb(148,   0, 211)'/>
	<use xlink:href='#gpPt6' transform='translate(537.3,72.1) scale(4.50)' color='rgb(148,   0, 211)'/>
</g>
	</g>
	<g id="gnuplot_plot_2" ><title>Linear spline</title>
<g fill="none" color="black" stroke="currentColor" stroke-width="2.00" stroke-linecap="butt" stroke-linejoin="miter">
	<g transform="translate(507.9,94.0)" stroke="none" fill="black" font-family="Arial" font-size="12.00"  text-anchor="end">
		<text><tspan font-family="Arial" >Linear spline</tspan></text>
	</g>
</g>
<g fill="none" color="black" stroke="currentColor" stroke-width="2.00" stroke-linecap="butt" stroke-linejoin="miter">
	<path stroke='rgb(  0, 158, 115)'  d='M516.2,90.1 L558.4,90.1 M73.5,122.2 L75.1,124.6 L76.8,126.9 L78.4,129.3 L80.0,131.7 L81.6,134.0
		L83.2,136.4 L84.8,138.7 L86.5,141.1 L88.1,143.4 L89.7,149.7 L91.3,155.9 L92.9,162.1 L94.6,168.4
		L96.2,174.6 L97.8,180.8 L99.4,187.0 L101.0,193.3 L102.7,199.5 L104.3,205.7 L105.9,213.6 L107.5,221.5
		L109.1,229.3 L110.7,237.2 L112.4,245.0 L114.0,252.9 L115.6,260.8 L117.2,268.6 L118.8,276.5 L120.5,284.4
		L122.1,291.1 L123.7,297.7 L125.3,304.4 L126.9,311.1 L128.6,317.8 L130.2,324.5 L131.8,331.2 L133.4,337.8
		L135.0,344.5 L136.6,351.2 L138.3,354.3 L139.9,357.4 L141.5,360.5 L143.1,363.6 L144.7,366.7 L146.4,369.8
		L148.0,372.9 L149.6,376.1 L151.2,379.2 L152.8,382.3 L154.4,380.7 L156.1,379.1 L157.7,377.5 L159.3,375.9
		L160.9,374.3 L162.5,372.8 L164.2,371.2 L165.8,369.6 L167.4,368.0 L169.0,366.4 L170.6,360.7 L172.3,355.0
		L173.9,349.3 L175.5,343.6 L177.1,337.9 L178.7,332.2 L180.3,326.5 L182.0,320.7 L183.6,315.0 L185.2,309.3
		L186.8,301.5 L188.4,293.8 L190.1,286.0 L191.7,278.2 L193.3,270.4 L194.9,262.6 L196.5,254.8 L198.1,247.1
		L199.8,239.3 L201.4,231.5 L203.0,224.4 L204.6,217.3 L206.2,210.3 L207.9,203.2 L209.5,196.1 L211.1,189.1
		L212.7,182.0 L214.3,174.9 L216.0,167.9 L217.6,160.8 L219.2,157.0 L220.8,153.1 L222.4,149.3 L224.0,145.5
		L225.7,141.7 L227.3,137.8 L228.9,134.0 L230.5,130.2 L232.1,126.4 L233.8,122.6 L235.4,123.4 L237.0,124.2
		L238.6,125.0 L240.2,125.7 L241.9,126.5 L243.5,127.3 L245.1,128.1 L246.7,128.9 L248.3,129.7 L249.9,130.5
		L251.6,135.7 L253.2,140.8 L254.8,145.9 L256.4,151.0 L258.0,156.2 L259.7,161.3 L261.3,166.4 L262.9,171.6
		L264.5,176.7 L266.1,181.8 L267.7,189.4 L269.4,197.1 L271.0,204.7 L272.6,212.3 L274.2,219.9 L275.8,227.6
		L277.5,235.2 L279.1,242.8 L280.7,250.4 L282.3,258.1 L283.9,265.5 L285.6,272.8 L287.2,280.2 L288.8,287.6
		L290.4,295.0 L292.0,302.4 L293.6,309.8 L295.3,317.1 L296.9,324.5 L298.5,331.9 L300.1,336.4 L301.7,340.9
		L303.4,345.4 L305.0,349.9 L306.6,354.4 L308.2,358.9 L309.8,363.4 L311.4,367.9 L313.1,372.4 L314.7,376.9
		L316.3,376.9 L317.9,376.9 L319.5,376.9 L321.2,376.9 L322.8,376.9 L324.4,376.9 L326.0,376.9 L327.6,376.9
		L329.3,376.9 L330.9,376.9 L332.5,372.4 L334.1,367.9 L335.7,363.4 L337.3,358.9 L339.0,354.4 L340.6,349.9
		L342.2,345.4 L343.8,340.9 L345.4,336.4 L347.1,331.9 L348.7,324.5 L350.3,317.1 L351.9,309.8 L353.5,302.4
		L355.2,295.0 L356.8,287.6 L358.4,280.2 L360.0,272.8 L361.6,265.5 L363.2,258.1 L364.9,250.4 L366.5,242.8
		L368.1,235.2 L369.7,227.6 L371.3,219.9 L373.0,212.3 L374.6,204.7 L376.2,197.1 L377.8,189.4 L379.4,181.8
		L381.0,176.7 L382.7,171.6 L384.3,166.4 L385.9,161.3 L387.5,156.2 L389.1,151.0 L390.8,145.9 L392.4,140.8
		L394.0,135.7 L395.6,130.5 L397.2,129.7 L398.9,128.9 L400.5,128.1 L402.1,127.3 L403.7,126.5 L405.3,125.7
		L406.9,125.0 L408.6,124.2 L410.2,123.4 L411.8,122.6 L413.4,126.4 L415.0,130.2 L416.7,134.0 L418.3,137.8
		L419.9,141.7 L421.5,145.5 L423.1,149.3 L424.7,153.1 L426.4,157.0 L428.0,160.8 L429.6,167.9 L431.2,174.9
		L432.8,182.0 L434.5,189.1 L436.1,196.1 L437.7,203.2 L439.3,210.3 L440.9,217.3 L442.6,224.4 L444.2,231.5
		L445.8,239.3 L447.4,247.1 L449.0,254.8 L450.6,262.6 L452.3,270.4 L453.9,278.2 L455.5,286.0 L457.1,293.8
		L458.7,301.5 L460.4,309.3 L462.0,315.0 L463.6,320.7 L465.2,326.5 L466.8,332.2 L468.4,337.9 L470.1,343.6
		L471.7,349.3 L473.3,355.0 L474.9,360.7 L476.5,366.4 L478.2,368.0 L479.8,369.6 L481.4,371.2 L483.0,372.8
		L484.6,374.3 L486.3,375.9 L487.9,377.5 L489.5,379.1 L491.1,380.7 L492.7,382.3 L494.3,379.2 L496.0,376.1
		L497.6,372.9 L499.2,369.8 L500.8,366.7 L502.4,363.6 L504.1,360.5 L505.7,357.4 L507.3,354.3 L508.9,351.2
		L510.5,344.5 L512.2,337.8 L513.8,331.2 L515.4,324.5 L517.0,317.8 L518.6,311.1 L520.2,304.4 L521.9,297.7
		L523.5,291.1 L525.1,284.4 L526.7,276.5 L528.3,268.6 L530.0,260.8 L531.6,252.9 L533.2,245.0 L534.8,237.2
		L536.4,229.3 L538.0,221.5 L539.7,213.6 L541.3,205.7 L542.9,199.5 L544.5,193.3 L546.1,187.0 L547.8,180.8
		L549.4,174.6 L551.0,168.4 L552.6,162.1 L554.2,155.9 L555.9,149.7 L557.5,143.4  '/></g>
	</g>
	<g id="gnuplot_plot_3" ><title>Linear spline integration</title>
<g fill="none" color="black" stroke="currentColor" stroke-width="2.00" stroke-linecap="butt" stroke-linejoin="miter">
	<g transform="translate(507.9,112.0)" stroke="none" fill="black" font-family="Arial" font-size="12.00"  text-anchor="end">
		<text><tspan font-family="Arial" >Linear spline integration</tspan></text>
	</g>
</g>
<g fill="none" color="black" stroke="currentColor" stroke-width="2.00" stroke-linecap="butt" stroke-linejoin="miter">
	<path stroke='rgb( 86, 180, 233)'  d='M516.2,108.1 L558.4,108.1 M73.5,243.5 L75.1,235.7 L76.8,228.1 L78.4,220.6 L80.0,213.2 L81.6,206.0
		L83.2,198.9 L84.8,192.0 L86.5,185.2 L88.1,178.6 L89.7,172.2 L91.3,166.2 L92.9,160.6 L94.6,155.4
		L96.2,150.5 L97.8,146.0 L99.4,141.9 L101.0,138.2 L102.7,134.8 L104.3,131.9 L105.9,129.3 L107.5,127.3
		L109.1,125.7 L110.7,124.6 L112.4,124.0 L114.0,123.8 L115.6,124.2 L117.2,125.0 L118.8,126.2 L120.5,128.0
		L122.1,130.2 L123.7,132.8 L125.3,135.9 L126.9,139.3 L128.6,143.1 L130.2,147.4 L131.8,152.0 L133.4,157.1
		L135.0,162.5 L136.6,168.4 L138.3,174.5 L139.9,180.9 L141.5,187.4 L143.1,194.2 L144.7,201.1 L146.4,208.2
		L148.0,215.5 L149.6,223.0 L151.2,230.6 L152.8,238.5 L154.4,246.4 L156.1,254.2 L157.7,261.9 L159.3,269.6
		L160.9,277.1 L162.5,284.5 L164.2,291.8 L165.8,299.1 L167.4,306.2 L169.0,313.3 L170.6,320.1 L172.3,326.6
		L173.9,332.7 L175.5,338.5 L177.1,343.9 L178.7,349.0 L180.3,353.7 L182.0,358.1 L183.6,362.1 L185.2,365.8
		L186.8,369.1 L188.4,371.9 L190.1,374.3 L191.7,376.1 L193.3,377.5 L194.9,378.4 L196.5,378.9 L198.1,378.9
		L199.8,378.4 L201.4,377.4 L203.0,376.0 L204.6,374.1 L206.2,371.8 L207.9,369.1 L209.5,366.0 L211.1,362.4
		L212.7,358.4 L214.3,353.9 L216.0,349.1 L217.6,343.8 L219.2,338.2 L220.8,332.3 L222.4,326.2 L224.0,319.9
		L225.7,313.3 L227.3,306.5 L228.9,299.5 L230.5,292.3 L232.1,284.8 L233.8,277.1 L235.4,269.3 L237.0,261.5
		L238.6,253.8 L240.2,246.1 L241.9,238.5 L243.5,230.9 L245.1,223.4 L246.7,215.9 L248.3,208.5 L249.9,201.1
		L251.6,193.9 L253.2,187.1 L254.8,180.5 L256.4,174.2 L258.0,168.3 L259.7,162.7 L261.3,157.3 L262.9,152.3
		L264.5,147.6 L266.1,143.2 L267.7,139.2 L269.4,135.7 L271.0,132.6 L272.6,130.0 L274.2,127.9 L275.8,126.2
		L277.5,125.0 L279.1,124.2 L280.7,123.9 L282.3,124.1 L283.9,124.7 L285.6,125.8 L287.2,127.3 L288.8,129.3
		L290.4,131.7 L292.0,134.6 L293.6,137.9 L295.3,141.7 L296.9,145.9 L298.5,150.6 L300.1,155.6 L301.7,161.0
		L303.4,166.5 L305.0,172.4 L306.6,178.5 L308.2,184.9 L309.8,191.6 L311.4,198.5 L313.1,205.8 L314.7,213.2
		L316.3,220.9 L317.9,228.5 L319.5,236.1 L321.2,243.8 L322.8,251.4 L324.4,259.0 L326.0,266.7 L327.6,274.3
		L329.3,281.9 L330.9,289.6 L332.5,297.1 L334.1,304.3 L335.7,311.2 L337.3,317.9 L339.0,324.3 L340.6,330.4
		L342.2,336.3 L343.8,341.9 L345.4,347.2 L347.1,352.2 L348.7,356.9 L350.3,361.1 L351.9,364.9 L353.5,368.2
		L355.2,371.1 L356.8,373.5 L358.4,375.5 L360.0,377.0 L361.6,378.1 L363.2,378.7 L364.9,378.9 L366.5,378.6
		L368.1,377.8 L369.7,376.6 L371.3,374.9 L373.0,372.8 L374.6,370.2 L376.2,367.1 L377.8,363.6 L379.4,359.6
		L381.0,355.2 L382.7,350.5 L384.3,345.5 L385.9,340.2 L387.5,334.5 L389.1,328.6 L390.8,322.3 L392.4,315.7
		L394.0,308.9 L395.6,301.7 L397.2,294.3 L398.9,286.9 L400.5,279.4 L402.1,271.9 L403.7,264.3 L405.3,256.7
		L406.9,249.0 L408.6,241.3 L410.2,233.6 L411.8,225.7 L413.4,218.0 L415.0,210.5 L416.7,203.3 L418.3,196.3
		L419.9,189.5 L421.5,182.9 L423.1,176.6 L424.7,170.5 L426.4,164.6 L428.0,159.0 L429.6,153.7 L431.2,148.9
		L432.8,144.4 L434.5,140.4 L436.1,136.8 L437.7,133.7 L439.3,131.0 L440.9,128.7 L442.6,126.8 L444.2,125.4
		L445.8,124.4 L447.4,123.9 L449.0,123.9 L450.6,124.4 L452.3,125.3 L453.9,126.7 L455.5,128.5 L457.1,130.9
		L458.7,133.7 L460.4,137.0 L462.0,140.7 L463.6,144.7 L465.2,149.1 L466.8,153.8 L468.4,158.9 L470.1,164.4
		L471.7,170.1 L473.3,176.3 L474.9,182.7 L476.5,189.5 L478.2,196.6 L479.8,203.7 L481.4,211.0 L483.0,218.3
		L484.6,225.7 L486.3,233.2 L487.9,240.9 L489.5,248.6 L491.1,256.4 L492.7,264.3 L494.3,272.2 L496.0,279.8
		L497.6,287.3 L499.2,294.6 L500.8,301.7 L502.4,308.6 L504.1,315.4 L505.7,321.9 L507.3,328.3 L508.9,334.4
		L510.5,340.3 L512.2,345.8 L513.8,350.8 L515.4,355.4 L517.0,359.7 L518.6,363.5 L520.2,366.9 L521.9,370.0
		L523.5,372.6 L525.1,374.8 L526.7,376.6 L528.3,377.8 L530.0,378.7 L531.6,379.0 L533.2,378.8 L534.8,378.2
		L536.4,377.1 L538.0,375.5 L539.7,373.5 L541.3,370.9 L542.9,368.0 L544.5,364.6 L546.1,360.9 L547.8,356.8
		L549.4,352.3 L551.0,347.4 L552.6,342.2 L554.2,336.6 L555.9,330.6 L557.5,324.2  '/></g>
	</g>
	<g id="gnuplot_plot_4" ><title>gnuplot_plot_4</title>
<g fill="none" color="black" stroke="currentColor" stroke-width="2.00" stroke-linecap="butt" stroke-linejoin="miter">
	<path stroke='rgb(229,  30,  16)' stroke-dasharray=' 5,8'  d='M73.5,243.4 L75.1,235.4 L76.8,227.5 L78.4,219.7 L80.0,212.0 L81.6,204.5 L83.2,197.1 L84.8,189.9
		L86.5,183.0 L88.1,176.3 L89.7,169.8 L91.3,163.7 L92.9,157.9 L94.6,152.5 L96.2,147.4 L97.8,142.7
		L99.4,138.4 L101.0,134.5 L102.7,131.1 L104.3,128.1 L105.9,125.5 L107.5,123.4 L109.1,121.8 L110.7,120.7
		L112.4,120.0 L114.0,119.9 L115.6,120.2 L117.2,121.0 L118.8,122.3 L120.5,124.1 L122.1,126.3 L123.7,129.0
		L125.3,132.2 L126.9,135.8 L128.6,139.8 L130.2,144.2 L131.8,149.0 L133.4,154.3 L135.0,159.8 L136.6,165.7
		L138.3,171.9 L139.9,178.5 L141.5,185.3 L143.1,192.3 L144.7,199.5 L146.4,207.0 L148.0,214.6 L149.6,222.3
		L151.2,230.2 L152.8,238.1 L154.4,246.1 L156.1,254.1 L157.7,262.1 L159.3,270.0 L160.9,277.9 L162.5,285.7
		L164.2,293.3 L165.8,300.8 L167.4,308.1 L169.0,315.2 L170.6,322.1 L172.3,328.7 L173.9,335.0 L175.5,341.1
		L177.1,346.7 L178.7,352.1 L180.3,357.0 L182.0,361.6 L183.6,365.8 L185.2,369.5 L186.8,372.8 L188.4,375.7
		L190.1,378.0 L191.7,380.0 L193.3,381.4 L194.9,382.4 L196.5,382.9 L198.1,382.9 L199.8,382.4 L201.4,381.4
		L203.0,380.0 L204.6,378.0 L206.2,375.7 L207.9,372.8 L209.5,369.5 L211.1,365.8 L212.7,361.6 L214.3,357.0
		L216.0,352.1 L217.6,346.7 L219.2,341.1 L220.8,335.0 L222.4,328.7 L224.0,322.1 L225.7,315.2 L227.3,308.1
		L228.9,300.8 L230.5,293.3 L232.1,285.7 L233.8,277.9 L235.4,270.0 L237.0,262.1 L238.6,254.1 L240.2,246.1
		L241.9,238.1 L243.5,230.2 L245.1,222.3 L246.7,214.6 L248.3,207.0 L249.9,199.5 L251.6,192.3 L253.2,185.3
		L254.8,178.5 L256.4,171.9 L258.0,165.7 L259.7,159.8 L261.3,154.3 L262.9,149.0 L264.5,144.2 L266.1,139.8
		L267.7,135.8 L269.4,132.2 L271.0,129.0 L272.6,126.3 L274.2,124.1 L275.8,122.3 L277.5,121.0 L279.1,120.2
		L280.7,119.9 L282.3,120.0 L283.9,120.7 L285.6,121.8 L287.2,123.4 L288.8,125.5 L290.4,128.1 L292.0,131.1
		L293.6,134.5 L295.3,138.4 L296.9,142.7 L298.5,147.4 L300.1,152.5 L301.7,157.9 L303.4,163.7 L305.0,169.8
		L306.6,176.3 L308.2,183.0 L309.8,189.9 L311.4,197.1 L313.1,204.5 L314.7,212.0 L316.3,219.7 L317.9,227.5
		L319.5,235.4 L321.2,243.4 L322.8,251.4 L324.4,259.4 L326.0,267.4 L327.6,275.3 L329.3,283.1 L330.9,290.8
		L332.5,298.3 L334.1,305.7 L335.7,312.9 L337.3,319.8 L339.0,326.5 L340.6,333.0 L342.2,339.1 L343.8,344.9
		L345.4,350.3 L347.1,355.4 L348.7,360.1 L350.3,364.4 L351.9,368.3 L353.5,371.7 L355.2,374.8 L356.8,377.3
		L358.4,379.4 L360.0,381.0 L361.6,382.1 L363.2,382.8 L364.9,382.9 L366.5,382.6 L368.1,381.8 L369.7,380.5
		L371.3,378.7 L373.0,376.5 L374.6,373.8 L376.2,370.6 L377.8,367.1 L379.4,363.0 L381.0,358.6 L382.7,353.8
		L384.3,348.6 L385.9,343.0 L387.5,337.1 L389.1,330.9 L390.8,324.3 L392.4,317.6 L394.0,310.5 L395.6,303.3
		L397.2,295.8 L398.9,288.2 L400.5,280.5 L402.1,272.6 L403.7,264.7 L405.3,256.7 L406.9,248.7 L408.6,240.8
		L410.2,232.8 L411.8,224.9 L413.4,217.1 L415.0,209.5 L416.7,202.0 L418.3,194.7 L419.9,187.6 L421.5,180.7
		L423.1,174.1 L424.7,167.8 L426.4,161.8 L428.0,156.1 L429.6,150.7 L431.2,145.8 L432.8,141.2 L434.5,137.1
		L436.1,133.3 L437.7,130.0 L439.3,127.2 L440.9,124.8 L442.6,122.8 L444.2,121.4 L445.8,120.4 L447.4,119.9
		L449.0,119.9 L450.6,120.4 L452.3,121.4 L453.9,122.8 L455.5,124.8 L457.1,127.2 L458.7,130.0 L460.4,133.3
		L462.0,137.0 L463.6,141.2 L465.2,145.8 L466.8,150.7 L468.4,156.1 L470.1,161.7 L471.7,167.8 L473.3,174.1
		L474.9,180.7 L476.5,187.6 L478.2,194.7 L479.8,202.0 L481.4,209.5 L483.0,217.1 L484.6,224.9 L486.3,232.8
		L487.9,240.8 L489.5,248.7 L491.1,256.7 L492.7,264.7 L494.3,272.6 L496.0,280.5 L497.6,288.2 L499.2,295.8
		L500.8,303.3 L502.4,310.5 L504.1,317.6 L505.7,324.3 L507.3,330.9 L508.9,337.1 L510.5,343.0 L512.2,348.6
		L513.8,353.8 L515.4,358.6 L517.0,363.0 L518.6,367.1 L520.2,370.6 L521.9,373.8 L523.5,376.5 L525.1,378.7
		L526.7,380.5 L528.3,381.8 L530.0,382.6 L531.6,382.9 L533.2,382.8 L534.8,382.1 L536.4,381.0 L538.0,379.4
		L539.7,377.3 L541.3,374.7 L542.9,371.7 L544.5,368.3 L546.1,364.4 L547.8,360.1 L549.4,355.4 L551.0,350.3
		L552.6,344.9 L554.2,339.1 L555.9,333.0 L557.5,326.5  '/></g>
	</g>
<g fill="none" color="#FFFFFF" stroke="rgb(229,  30,  16)" stroke-width="4.00" stroke-linecap="butt" stroke-linejoin="miter">
</g>
<g fill="none" color="black" stroke="currentColor" stroke-width="4.00" stroke-linecap="butt" stroke-linejoin="miter">
</g>
<g fill="none" color="black" stroke="black" stroke-width="2.00" stroke-linecap="butt" stroke-linejoin="miter">
</g>
<g fill="none" color="black" stroke="currentColor" stroke-width="2.00" stroke-linecap="butt" stroke-linejoin="miter">
	<path stroke='black'  d='M71.9,54.1 L71.9,422.4 L575.0,422.4 L575.0,54.1 L71.9,54.1 Z  '/></g>
<g fill="none" color="black" stroke="currentColor" stroke-width="2.00" stroke-linecap="butt" stroke-linejoin="miter">
</g>
</g>
</svg>

