Finding extermum of Rosebnbrock function:
f(x,y) = (1-x)² + 100(y-x²)².
Its gradient is:
∇f(x,y) = {-2(1-x) + -400x(y-x²), 200(y-x²)}
        = {2(200x³-200xy+x-1), 200(y-x²)}.

The initial state is:
iter =   0, (x,y) = (2.000, 3.000) grad f(x,y) = (8.020e+02, -2.000e+02)
And for the irrerations:
iter =   1, (x,y) = (1.995, 3.980) grad f(x,y) = (2.010e+00, -4.950e-03)
iter =   2, (x,y) = (1.995, 3.980) grad f(x,y) = (2.010e+00, -4.950e-03)
iter =   3, (x,y) = (1.995, 3.980) grad f(x,y) = (2.010e+00, -4.950e-03)
iter =   4, (x,y) = (1.995, 3.980) grad f(x,y) = (2.010e+00, -4.950e-03)
iter =   5, (x,y) = (1.954, 3.820) grad f(x,y) = (-1.063e+00, 7.601e-01)
iter =   6, (x,y) = (1.954, 3.820) grad f(x,y) = (-1.063e+00, 7.601e-01)
iter =   7, (x,y) = (1.912, 3.660) grad f(x,y) = (-9.050e-01, 7.137e-01)
iter =   8, (x,y) = (1.912, 3.660) grad f(x,y) = (-9.050e-01, 7.137e-01)
iter =   9, (x,y) = (1.891, 3.580) grad f(x,y) = (-1.415e-01, 5.087e-01)
iter =  10, (x,y) = (1.891, 3.580) grad f(x,y) = (-1.415e-01, 5.087e-01)
iter =  11, (x,y) = (1.870, 3.501) grad f(x,y) = (-1.300e-01, 5.001e-01)
iter =  12, (x,y) = (1.870, 3.501) grad f(x,y) = (-1.300e-01, 5.001e-01)
iter =  13, (x,y) = (1.860, 3.462) grad f(x,y) = (4.720e-02, 4.497e-01)
iter =  14, (x,y) = (1.860, 3.462) grad f(x,y) = (4.720e-02, 4.497e-01)
iter =  15, (x,y) = (1.849, 3.422) grad f(x,y) = (4.980e-02, 4.458e-01)
iter =  16, (x,y) = (1.849, 3.422) grad f(x,y) = (4.980e-02, 4.458e-01)
iter =  17, (x,y) = (1.844, 3.403) grad f(x,y) = (9.232e-02, 4.327e-01)
iter =  18, (x,y) = (1.844, 3.403) grad f(x,y) = (9.232e-02, 4.327e-01)
iter =  19, (x,y) = (1.839, 3.383) grad f(x,y) = (9.275e-02, 4.309e-01)
iter =  20, (x,y) = (1.834, 3.364) grad f(x,y) = (1.461e-01, 4.148e-01)
iter =  21, (x,y) = (1.834, 3.364) grad f(x,y) = (1.461e-01, 4.148e-01)
iter =  22, (x,y) = (1.828, 3.345) grad f(x,y) = (9.587e-02, 4.268e-01)
iter =  23, (x,y) = (1.823, 3.325) grad f(x,y) = (1.402e-01, 4.130e-01)
iter =  24, (x,y) = (1.823, 3.325) grad f(x,y) = (1.402e-01, 4.130e-01)
iter =  25, (x,y) = (1.818, 3.306) grad f(x,y) = (9.531e-02, 4.236e-01)
iter =  26, (x,y) = (1.812, 3.286) grad f(x,y) = (1.395e-01, 4.097e-01)
iter =  27, (x,y) = (1.812, 3.286) grad f(x,y) = (1.395e-01, 4.097e-01)
iter =  28, (x,y) = (1.807, 3.267) grad f(x,y) = (9.518e-02, 4.203e-01)
iter =  29, (x,y) = (1.802, 3.248) grad f(x,y) = (1.385e-01, 4.065e-01)
iter =  30, (x,y) = (1.802, 3.248) grad f(x,y) = (1.385e-01, 4.065e-01)
iter =  31, (x,y) = (1.796, 3.229) grad f(x,y) = (9.499e-02, 4.169e-01)
iter =  32, (x,y) = (1.791, 3.210) grad f(x,y) = (1.374e-01, 4.033e-01)
iter =  33, (x,y) = (1.791, 3.210) grad f(x,y) = (1.374e-01, 4.033e-01)
iter =  34, (x,y) = (1.786, 3.190) grad f(x,y) = (9.480e-02, 4.134e-01)
iter =  35, (x,y) = (1.780, 3.171) grad f(x,y) = (1.364e-01, 4.000e-01)
iter =  36, (x,y) = (1.780, 3.171) grad f(x,y) = (1.364e-01, 4.000e-01)
iter =  37, (x,y) = (1.775, 3.152) grad f(x,y) = (9.460e-02, 4.099e-01)
iter =  38, (x,y) = (1.770, 3.133) grad f(x,y) = (1.354e-01, 3.966e-01)
iter =  39, (x,y) = (1.770, 3.133) grad f(x,y) = (1.354e-01, 3.966e-01)
iter =  40, (x,y) = (1.764, 3.114) grad f(x,y) = (9.439e-02, 4.064e-01)
iter =  41, (x,y) = (1.759, 3.095) grad f(x,y) = (1.344e-01, 3.932e-01)
iter =  42, (x,y) = (1.759, 3.095) grad f(x,y) = (1.344e-01, 3.932e-01)
iter =  43, (x,y) = (1.753, 3.076) grad f(x,y) = (9.416e-02, 4.028e-01)
iter =  44, (x,y) = (1.748, 3.058) grad f(x,y) = (1.334e-01, 3.898e-01)
iter =  45, (x,y) = (1.748, 3.058) grad f(x,y) = (1.334e-01, 3.898e-01)
iter =  46, (x,y) = (1.743, 3.039) grad f(x,y) = (9.393e-02, 3.992e-01)
iter =  47, (x,y) = (1.737, 3.020) grad f(x,y) = (1.323e-01, 3.863e-01)
iter =  48, (x,y) = (1.737, 3.020) grad f(x,y) = (1.323e-01, 3.863e-01)
iter =  49, (x,y) = (1.732, 3.001) grad f(x,y) = (9.368e-02, 3.955e-01)
iter =  50, (x,y) = (1.726, 2.982) grad f(x,y) = (1.313e-01, 3.827e-01)
iter =  51, (x,y) = (1.726, 2.982) grad f(x,y) = (1.313e-01, 3.827e-01)
iter =  52, (x,y) = (1.721, 2.964) grad f(x,y) = (9.342e-02, 3.918e-01)
iter =  53, (x,y) = (1.716, 2.945) grad f(x,y) = (1.303e-01, 3.791e-01)
iter =  54, (x,y) = (1.716, 2.945) grad f(x,y) = (1.303e-01, 3.791e-01)
iter =  55, (x,y) = (1.710, 2.926) grad f(x,y) = (9.314e-02, 3.880e-01)
iter =  56, (x,y) = (1.705, 2.908) grad f(x,y) = (1.293e-01, 3.754e-01)
iter =  57, (x,y) = (1.705, 2.908) grad f(x,y) = (1.293e-01, 3.754e-01)
iter =  58, (x,y) = (1.699, 2.889) grad f(x,y) = (9.285e-02, 3.842e-01)
iter =  59, (x,y) = (1.694, 2.871) grad f(x,y) = (1.283e-01, 3.717e-01)
iter =  60, (x,y) = (1.694, 2.871) grad f(x,y) = (1.283e-01, 3.717e-01)
iter =  61, (x,y) = (1.688, 2.852) grad f(x,y) = (9.255e-02, 3.803e-01)
iter =  62, (x,y) = (1.683, 2.834) grad f(x,y) = (1.273e-01, 3.679e-01)
iter =  63, (x,y) = (1.683, 2.834) grad f(x,y) = (1.273e-01, 3.679e-01)
iter =  64, (x,y) = (1.677, 2.815) grad f(x,y) = (9.224e-02, 3.763e-01)
iter =  65, (x,y) = (1.672, 2.797) grad f(x,y) = (1.263e-01, 3.641e-01)
iter =  66, (x,y) = (1.672, 2.797) grad f(x,y) = (1.263e-01, 3.641e-01)
iter =  67, (x,y) = (1.666, 2.779) grad f(x,y) = (9.191e-02, 3.723e-01)
iter =  68, (x,y) = (1.661, 2.760) grad f(x,y) = (1.253e-01, 3.602e-01)
iter =  69, (x,y) = (1.661, 2.760) grad f(x,y) = (1.253e-01, 3.602e-01)
iter =  70, (x,y) = (1.655, 2.742) grad f(x,y) = (9.157e-02, 3.683e-01)
iter =  71, (x,y) = (1.650, 2.724) grad f(x,y) = (1.243e-01, 3.562e-01)
iter =  72, (x,y) = (1.650, 2.724) grad f(x,y) = (1.243e-01, 3.562e-01)
iter =  73, (x,y) = (1.644, 2.706) grad f(x,y) = (9.122e-02, 3.641e-01)
iter =  74, (x,y) = (1.639, 2.688) grad f(x,y) = (1.233e-01, 3.522e-01)
iter =  75, (x,y) = (1.639, 2.688) grad f(x,y) = (1.233e-01, 3.522e-01)
iter =  76, (x,y) = (1.633, 2.670) grad f(x,y) = (9.085e-02, 3.599e-01)
iter =  77, (x,y) = (1.628, 2.651) grad f(x,y) = (1.223e-01, 3.481e-01)
iter =  78, (x,y) = (1.628, 2.651) grad f(x,y) = (1.223e-01, 3.481e-01)
iter =  79, (x,y) = (1.622, 2.633) grad f(x,y) = (9.046e-02, 3.557e-01)
iter =  80, (x,y) = (1.617, 2.615) grad f(x,y) = (1.213e-01, 3.440e-01)
iter =  81, (x,y) = (1.617, 2.615) grad f(x,y) = (1.213e-01, 3.440e-01)
iter =  82, (x,y) = (1.611, 2.598) grad f(x,y) = (9.006e-02, 3.514e-01)
iter =  83, (x,y) = (1.606, 2.580) grad f(x,y) = (1.203e-01, 3.397e-01)
iter =  84, (x,y) = (1.606, 2.580) grad f(x,y) = (1.203e-01, 3.397e-01)
iter =  85, (x,y) = (1.600, 2.562) grad f(x,y) = (8.964e-02, 3.470e-01)
iter =  86, (x,y) = (1.594, 2.544) grad f(x,y) = (1.192e-01, 3.354e-01)
iter =  87, (x,y) = (1.594, 2.544) grad f(x,y) = (1.192e-01, 3.354e-01)
iter =  88, (x,y) = (1.589, 2.526) grad f(x,y) = (8.921e-02, 3.426e-01)
iter =  89, (x,y) = (1.583, 2.509) grad f(x,y) = (1.182e-01, 3.311e-01)
iter =  90, (x,y) = (1.583, 2.509) grad f(x,y) = (1.182e-01, 3.311e-01)
iter =  91, (x,y) = (1.578, 2.491) grad f(x,y) = (8.876e-02, 3.380e-01)
iter =  92, (x,y) = (1.572, 2.473) grad f(x,y) = (1.172e-01, 3.266e-01)
iter =  93, (x,y) = (1.572, 2.473) grad f(x,y) = (1.172e-01, 3.266e-01)
iter =  94, (x,y) = (1.567, 2.456) grad f(x,y) = (8.829e-02, 3.335e-01)
iter =  95, (x,y) = (1.561, 2.438) grad f(x,y) = (1.162e-01, 3.221e-01)
iter =  96, (x,y) = (1.561, 2.438) grad f(x,y) = (1.162e-01, 3.221e-01)
iter =  97, (x,y) = (1.555, 2.421) grad f(x,y) = (8.781e-02, 3.288e-01)
iter =  98, (x,y) = (1.550, 2.403) grad f(x,y) = (1.151e-01, 3.176e-01)
iter =  99, (x,y) = (1.550, 2.403) grad f(x,y) = (1.151e-01, 3.176e-01)
iter = 100, (x,y) = (1.544, 2.386) grad f(x,y) = (8.731e-02, 3.241e-01)
iter = 101, (x,y) = (1.538, 2.368) grad f(x,y) = (1.141e-01, 3.129e-01)
iter = 102, (x,y) = (1.538, 2.368) grad f(x,y) = (1.141e-01, 3.129e-01)
iter = 103, (x,y) = (1.533, 2.351) grad f(x,y) = (8.679e-02, 3.193e-01)
iter = 104, (x,y) = (1.527, 2.334) grad f(x,y) = (1.130e-01, 3.082e-01)
iter = 105, (x,y) = (1.527, 2.334) grad f(x,y) = (1.130e-01, 3.082e-01)
iter = 106, (x,y) = (1.521, 2.316) grad f(x,y) = (8.625e-02, 3.144e-01)
iter = 107, (x,y) = (1.516, 2.299) grad f(x,y) = (1.119e-01, 3.034e-01)
iter = 108, (x,y) = (1.516, 2.299) grad f(x,y) = (1.119e-01, 3.034e-01)
iter = 109, (x,y) = (1.510, 2.282) grad f(x,y) = (8.569e-02, 3.094e-01)
iter = 110, (x,y) = (1.504, 2.265) grad f(x,y) = (1.109e-01, 2.985e-01)
iter = 111, (x,y) = (1.504, 2.265) grad f(x,y) = (1.109e-01, 2.985e-01)
iter = 112, (x,y) = (1.499, 2.248) grad f(x,y) = (8.511e-02, 3.044e-01)
iter = 113, (x,y) = (1.493, 2.231) grad f(x,y) = (1.098e-01, 2.935e-01)
iter = 114, (x,y) = (1.493, 2.231) grad f(x,y) = (1.098e-01, 2.935e-01)
iter = 115, (x,y) = (1.487, 2.214) grad f(x,y) = (8.451e-02, 2.993e-01)
iter = 116, (x,y) = (1.482, 2.197) grad f(x,y) = (1.087e-01, 2.884e-01)
iter = 117, (x,y) = (1.482, 2.197) grad f(x,y) = (1.087e-01, 2.884e-01)
iter = 118, (x,y) = (1.476, 2.180) grad f(x,y) = (8.390e-02, 2.940e-01)
iter = 119, (x,y) = (1.470, 2.163) grad f(x,y) = (1.076e-01, 2.833e-01)
iter = 120, (x,y) = (1.470, 2.163) grad f(x,y) = (1.076e-01, 2.833e-01)
iter = 121, (x,y) = (1.465, 2.146) grad f(x,y) = (8.326e-02, 2.887e-01)
iter = 122, (x,y) = (1.459, 2.129) grad f(x,y) = (1.064e-01, 2.780e-01)
iter = 123, (x,y) = (1.459, 2.129) grad f(x,y) = (1.064e-01, 2.780e-01)
iter = 124, (x,y) = (1.453, 2.113) grad f(x,y) = (8.260e-02, 2.834e-01)
iter = 125, (x,y) = (1.447, 2.096) grad f(x,y) = (1.053e-01, 2.727e-01)
iter = 126, (x,y) = (1.447, 2.096) grad f(x,y) = (1.053e-01, 2.727e-01)
iter = 127, (x,y) = (1.442, 2.079) grad f(x,y) = (8.191e-02, 2.779e-01)
iter = 128, (x,y) = (1.436, 2.063) grad f(x,y) = (1.041e-01, 2.673e-01)
iter = 129, (x,y) = (1.436, 2.063) grad f(x,y) = (1.041e-01, 2.673e-01)
iter = 130, (x,y) = (1.430, 2.046) grad f(x,y) = (8.121e-02, 2.723e-01)
iter = 131, (x,y) = (1.424, 2.030) grad f(x,y) = (1.030e-01, 2.617e-01)
iter = 132, (x,y) = (1.424, 2.030) grad f(x,y) = (1.030e-01, 2.617e-01)
iter = 133, (x,y) = (1.418, 2.013) grad f(x,y) = (8.048e-02, 2.666e-01)
iter = 134, (x,y) = (1.413, 1.997) grad f(x,y) = (1.018e-01, 2.561e-01)
iter = 135, (x,y) = (1.413, 1.997) grad f(x,y) = (1.018e-01, 2.561e-01)
iter = 136, (x,y) = (1.407, 1.981) grad f(x,y) = (7.973e-02, 2.609e-01)
iter = 137, (x,y) = (1.401, 1.964) grad f(x,y) = (1.006e-01, 2.504e-01)
iter = 138, (x,y) = (1.401, 1.964) grad f(x,y) = (1.006e-01, 2.504e-01)
iter = 139, (x,y) = (1.395, 1.948) grad f(x,y) = (7.895e-02, 2.550e-01)
iter = 140, (x,y) = (1.389, 1.932) grad f(x,y) = (9.938e-02, 2.445e-01)
iter = 141, (x,y) = (1.389, 1.932) grad f(x,y) = (9.938e-02, 2.445e-01)
iter = 142, (x,y) = (1.384, 1.916) grad f(x,y) = (7.815e-02, 2.490e-01)
iter = 143, (x,y) = (1.378, 1.900) grad f(x,y) = (9.815e-02, 2.386e-01)
iter = 144, (x,y) = (1.378, 1.900) grad f(x,y) = (9.815e-02, 2.386e-01)
iter = 145, (x,y) = (1.372, 1.884) grad f(x,y) = (7.732e-02, 2.430e-01)
iter = 146, (x,y) = (1.366, 1.868) grad f(x,y) = (9.690e-02, 2.326e-01)
iter = 147, (x,y) = (1.366, 1.868) grad f(x,y) = (9.690e-02, 2.326e-01)
iter = 148, (x,y) = (1.360, 1.852) grad f(x,y) = (7.646e-02, 2.368e-01)
iter = 149, (x,y) = (1.354, 1.836) grad f(x,y) = (9.563e-02, 2.264e-01)
iter = 150, (x,y) = (1.354, 1.836) grad f(x,y) = (9.563e-02, 2.264e-01)
iter = 151, (x,y) = (1.349, 1.820) grad f(x,y) = (7.558e-02, 2.305e-01)
iter = 152, (x,y) = (1.343, 1.804) grad f(x,y) = (9.433e-02, 2.201e-01)
iter = 153, (x,y) = (1.343, 1.804) grad f(x,y) = (9.433e-02, 2.201e-01)
iter = 154, (x,y) = (1.337, 1.788) grad f(x,y) = (7.467e-02, 2.241e-01)
iter = 155, (x,y) = (1.331, 1.773) grad f(x,y) = (9.302e-02, 2.137e-01)
iter = 156, (x,y) = (1.331, 1.773) grad f(x,y) = (9.302e-02, 2.137e-01)
iter = 157, (x,y) = (1.325, 1.757) grad f(x,y) = (7.373e-02, 2.175e-01)
iter = 158, (x,y) = (1.319, 1.741) grad f(x,y) = (9.168e-02, 2.072e-01)
iter = 159, (x,y) = (1.319, 1.741) grad f(x,y) = (9.168e-02, 2.072e-01)
iter = 160, (x,y) = (1.313, 1.726) grad f(x,y) = (7.276e-02, 2.109e-01)
iter = 161, (x,y) = (1.307, 1.710) grad f(x,y) = (9.032e-02, 2.006e-01)
iter = 162, (x,y) = (1.307, 1.710) grad f(x,y) = (9.032e-02, 2.006e-01)
iter = 163, (x,y) = (1.301, 1.695) grad f(x,y) = (7.176e-02, 2.041e-01)
iter = 164, (x,y) = (1.296, 1.679) grad f(x,y) = (8.894e-02, 1.938e-01)
iter = 165, (x,y) = (1.296, 1.679) grad f(x,y) = (8.894e-02, 1.938e-01)
iter = 166, (x,y) = (1.290, 1.664) grad f(x,y) = (7.073e-02, 1.972e-01)
iter = 167, (x,y) = (1.284, 1.649) grad f(x,y) = (8.753e-02, 1.869e-01)
iter = 168, (x,y) = (1.284, 1.649) grad f(x,y) = (8.753e-02, 1.869e-01)
iter = 169, (x,y) = (1.278, 1.634) grad f(x,y) = (6.966e-02, 1.901e-01)
iter = 170, (x,y) = (1.272, 1.618) grad f(x,y) = (8.609e-02, 1.799e-01)
iter = 171, (x,y) = (1.272, 1.618) grad f(x,y) = (8.609e-02, 1.799e-01)
iter = 172, (x,y) = (1.266, 1.603) grad f(x,y) = (6.857e-02, 1.829e-01)
iter = 173, (x,y) = (1.260, 1.588) grad f(x,y) = (8.463e-02, 1.727e-01)
iter = 174, (x,y) = (1.260, 1.588) grad f(x,y) = (8.463e-02, 1.727e-01)
iter = 175, (x,y) = (1.254, 1.573) grad f(x,y) = (6.744e-02, 1.756e-01)
iter = 176, (x,y) = (1.248, 1.558) grad f(x,y) = (8.314e-02, 1.654e-01)
iter = 177, (x,y) = (1.248, 1.558) grad f(x,y) = (8.314e-02, 1.654e-01)
iter = 178, (x,y) = (1.242, 1.543) grad f(x,y) = (6.627e-02, 1.682e-01)
iter = 179, (x,y) = (1.236, 1.528) grad f(x,y) = (8.161e-02, 1.579e-01)
iter = 180, (x,y) = (1.236, 1.528) grad f(x,y) = (8.161e-02, 1.579e-01)
iter = 181, (x,y) = (1.230, 1.514) grad f(x,y) = (6.506e-02, 1.605e-01)
iter = 182, (x,y) = (1.224, 1.499) grad f(x,y) = (8.006e-02, 1.503e-01)
iter = 183, (x,y) = (1.224, 1.499) grad f(x,y) = (8.006e-02, 1.503e-01)
iter = 184, (x,y) = (1.218, 1.484) grad f(x,y) = (6.382e-02, 1.528e-01)
iter = 185, (x,y) = (1.212, 1.470) grad f(x,y) = (7.847e-02, 1.425e-01)
iter = 186, (x,y) = (1.212, 1.470) grad f(x,y) = (7.847e-02, 1.425e-01)
iter = 187, (x,y) = (1.206, 1.455) grad f(x,y) = (6.254e-02, 1.449e-01)
iter = 188, (x,y) = (1.200, 1.441) grad f(x,y) = (7.685e-02, 1.346e-01)
iter = 189, (x,y) = (1.200, 1.441) grad f(x,y) = (7.685e-02, 1.346e-01)
iter = 190, (x,y) = (1.194, 1.426) grad f(x,y) = (6.122e-02, 1.368e-01)
iter = 191, (x,y) = (1.188, 1.412) grad f(x,y) = (7.519e-02, 1.265e-01)
iter = 192, (x,y) = (1.188, 1.412) grad f(x,y) = (7.519e-02, 1.265e-01)
iter = 193, (x,y) = (1.182, 1.397) grad f(x,y) = (5.986e-02, 1.285e-01)
iter = 194, (x,y) = (1.176, 1.383) grad f(x,y) = (7.350e-02, 1.182e-01)
iter = 195, (x,y) = (1.176, 1.383) grad f(x,y) = (7.350e-02, 1.182e-01)
iter = 196, (x,y) = (1.170, 1.369) grad f(x,y) = (5.846e-02, 1.201e-01)
iter = 197, (x,y) = (1.164, 1.355) grad f(x,y) = (7.177e-02, 1.098e-01)
iter = 198, (x,y) = (1.164, 1.355) grad f(x,y) = (7.177e-02, 1.098e-01)
iter = 199, (x,y) = (1.158, 1.340) grad f(x,y) = (5.701e-02, 1.115e-01)
iter = 200, (x,y) = (1.151, 1.326) grad f(x,y) = (7.000e-02, 1.011e-01)
iter = 201, (x,y) = (1.151, 1.326) grad f(x,y) = (7.000e-02, 1.011e-01)
iter = 202, (x,y) = (1.145, 1.312) grad f(x,y) = (5.551e-02, 1.027e-01)
iter = 203, (x,y) = (1.139, 1.298) grad f(x,y) = (6.818e-02, 9.233e-02)
iter = 204, (x,y) = (1.139, 1.298) grad f(x,y) = (6.818e-02, 9.233e-02)
iter = 205, (x,y) = (1.133, 1.285) grad f(x,y) = (5.397e-02, 9.371e-02)
iter = 206, (x,y) = (1.127, 1.271) grad f(x,y) = (6.633e-02, 8.332e-02)
iter = 207, (x,y) = (1.127, 1.271) grad f(x,y) = (6.633e-02, 8.332e-02)
iter = 208, (x,y) = (1.121, 1.257) grad f(x,y) = (5.238e-02, 8.453e-02)
iter = 209, (x,y) = (1.115, 1.243) grad f(x,y) = (6.443e-02, 7.411e-02)
iter = 210, (x,y) = (1.115, 1.243) grad f(x,y) = (6.443e-02, 7.411e-02)
iter = 211, (x,y) = (1.109, 1.230) grad f(x,y) = (5.074e-02, 7.516e-02)
iter = 212, (x,y) = (1.103, 1.216) grad f(x,y) = (6.248e-02, 6.469e-02)
iter = 213, (x,y) = (1.103, 1.216) grad f(x,y) = (6.248e-02, 6.469e-02)
iter = 214, (x,y) = (1.096, 1.202) grad f(x,y) = (4.905e-02, 6.557e-02)
iter = 215, (x,y) = (1.090, 1.189) grad f(x,y) = (6.049e-02, 5.506e-02)
iter = 216, (x,y) = (1.087, 1.182) grad f(x,y) = (5.558e-02, 5.464e-02)
iter = 217, (x,y) = (1.084, 1.176) grad f(x,y) = (4.316e-02, 5.768e-02)
iter = 218, (x,y) = (1.078, 1.162) grad f(x,y) = (4.202e-02, 5.282e-02)
iter = 219, (x,y) = (1.078, 1.162) grad f(x,y) = (4.202e-02, 5.282e-02)
iter = 220, (x,y) = (1.072, 1.149) grad f(x,y) = (3.539e-02, 5.046e-02)
iter = 221, (x,y) = (1.072, 1.149) grad f(x,y) = (3.539e-02, 5.046e-02)
iter = 222, (x,y) = (1.069, 1.142) grad f(x,y) = (2.663e-02, 5.182e-02)
iter = 223, (x,y) = (1.066, 1.136) grad f(x,y) = (2.413e-02, 5.024e-02)
iter = 224, (x,y) = (1.059, 1.123) grad f(x,y) = (4.032e-02, 3.706e-02)
iter = 225, (x,y) = (1.059, 1.123) grad f(x,y) = (4.032e-02, 3.706e-02)
iter = 226, (x,y) = (1.053, 1.109) grad f(x,y) = (3.804e-02, 3.248e-02)
iter = 227, (x,y) = (1.053, 1.109) grad f(x,y) = (3.804e-02, 3.248e-02)
iter = 228, (x,y) = (1.050, 1.103) grad f(x,y) = (2.645e-02, 3.515e-02)
iter = 229, (x,y) = (1.047, 1.096) grad f(x,y) = (2.074e-02, 3.502e-02)
iter = 230, (x,y) = (1.041, 1.083) grad f(x,y) = (3.308e-02, 2.334e-02)
iter = 231, (x,y) = (1.041, 1.083) grad f(x,y) = (3.308e-02, 2.334e-02)
iter = 232, (x,y) = (1.039, 1.080) grad f(x,y) = (1.577e-02, 3.021e-02)
iter = 233, (x,y) = (1.036, 1.074) grad f(x,y) = (1.958e-02, 2.546e-02)
iter = 234, (x,y) = (1.036, 1.074) grad f(x,y) = (1.958e-02, 2.546e-02)
iter = 235, (x,y) = (1.033, 1.067) grad f(x,y) = (8.631e-03, 2.783e-02)
iter = 236, (x,y) = (1.033, 1.067) grad f(x,y) = (8.631e-03, 2.783e-02)
iter = 237, (x,y) = (1.030, 1.061) grad f(x,y) = (7.501e-03, 2.545e-02)
iter = 238, (x,y) = (1.030, 1.061) grad f(x,y) = (7.501e-03, 2.545e-02)
iter = 239, (x,y) = (1.027, 1.055) grad f(x,y) = (6.387e-03, 2.304e-02)
iter = 240, (x,y) = (1.027, 1.055) grad f(x,y) = (6.387e-03, 2.304e-02)
iter = 241, (x,y) = (1.024, 1.048) grad f(x,y) = (5.267e-03, 2.062e-02)
iter = 242, (x,y) = (1.024, 1.048) grad f(x,y) = (5.267e-03, 2.062e-02)
iter = 243, (x,y) = (1.021, 1.042) grad f(x,y) = (4.141e-03, 1.818e-02)
iter = 244, (x,y) = (1.021, 1.042) grad f(x,y) = (4.141e-03, 1.818e-02)
iter = 245, (x,y) = (1.018, 1.035) grad f(x,y) = (3.008e-03, 1.573e-02)
iter = 246, (x,y) = (1.018, 1.035) grad f(x,y) = (3.008e-03, 1.573e-02)
iter = 247, (x,y) = (1.014, 1.029) grad f(x,y) = (1.868e-03, 1.327e-02)
iter = 248, (x,y) = (1.014, 1.029) grad f(x,y) = (1.868e-03, 1.327e-02)
iter = 249, (x,y) = (1.011, 1.023) grad f(x,y) = (7.221e-04, 1.079e-02)
iter = 250, (x,y) = (1.011, 1.023) grad f(x,y) = (7.221e-04, 1.079e-02)
iter = 251, (x,y) = (1.008, 1.016) grad f(x,y) = (-4.305e-04, 8.306e-03)
iter = 252, (x,y) = (1.008, 1.016) grad f(x,y) = (-4.305e-04, 8.306e-03)
iter = 253, (x,y) = (1.005, 1.010) grad f(x,y) = (-1.590e-03, 5.803e-03)
iter = 254, (x,y) = (1.005, 1.010) grad f(x,y) = (-1.590e-03, 5.803e-03)
iter = 255, (x,y) = (1.002, 1.004) grad f(x,y) = (-1.433e-03, 2.627e-03)
iter = 256, (x,y) = (1.002, 1.004) grad f(x,y) = (-1.433e-03, 2.627e-03)
iter = 257, (x,y) = (1.000, 1.000) grad f(x,y) = (8.563e-05, 2.784e-05)
iter = 258, (x,y) = (1.000, 1.000) grad f(x,y) = (5.818e-05, -2.649e-05)
iter = 259, (x,y) = (1.000, 1.000) grad f(x,y) = (2.679e-06, -2.109e-07)
iter = 260, (x,y) = (1.000, 1.000) grad f(x,y) = (2.679e-06, -2.109e-07)
iter = 261, (x,y) = (1.000, 1.000) grad f(x,y) = (-1.218e-08, 1.224e-09)
iter = 262, (x,y) = (1.000, 1.000) grad f(x,y) = (-3.226e-11, 3.242e-12)
status = success
Converged at f(x,y) = 1.66887e-22