<?xml version="1.0" encoding="utf-8"  standalone="no"?>
<svg 
 width="600" height="480"
 viewBox="0 0 600 480"
 xmlns="http://www.w3.org/2000/svg"
 xmlns:xlink="http://www.w3.org/1999/xlink"
>

<title>Gnuplot</title>
<desc>Produced by GNUPLOT 5.2 patchlevel 2 </desc>

<g id="gnuplot_canvas">

<rect x="0" y="0" width="600" height="480" fill="#ffffff"/>
<defs>

	<circle id='gpDot' r='0.5' stroke-width='0.5'/>
	<path id='gpPt0' stroke-width='0.222' stroke='currentColor' d='M-1,0 h2 M0,-1 v2'/>
	<path id='gpPt1' stroke-width='0.222' stroke='currentColor' d='M-1,-1 L1,1 M1,-1 L-1,1'/>
	<path id='gpPt2' stroke-width='0.222' stroke='currentColor' d='M-1,0 L1,0 M0,-1 L0,1 M-1,-1 L1,1 M-1,1 L1,-1'/>
	<rect id='gpPt3' stroke-width='0.222' stroke='currentColor' x='-1' y='-1' width='2' height='2'/>
	<rect id='gpPt4' stroke-width='0.222' stroke='currentColor' fill='currentColor' x='-1' y='-1' width='2' height='2'/>
	<circle id='gpPt5' stroke-width='0.222' stroke='currentColor' cx='0' cy='0' r='1'/>
	<use xlink:href='#gpPt5' id='gpPt6' fill='currentColor' stroke='none'/>
	<path id='gpPt7' stroke-width='0.222' stroke='currentColor' d='M0,-1.33 L-1.33,0.67 L1.33,0.67 z'/>
	<use xlink:href='#gpPt7' id='gpPt8' fill='currentColor' stroke='none'/>
	<use xlink:href='#gpPt7' id='gpPt9' stroke='currentColor' transform='rotate(180)'/>
	<use xlink:href='#gpPt9' id='gpPt10' fill='currentColor' stroke='none'/>
	<use xlink:href='#gpPt3' id='gpPt11' stroke='currentColor' transform='rotate(45)'/>
	<use xlink:href='#gpPt11' id='gpPt12' fill='currentColor' stroke='none'/>
	<path id='gpPt13' stroke-width='0.222' stroke='currentColor' d='M0,1.330 L1.265,0.411 L0.782,-1.067 L-0.782,-1.076 L-1.265,0.411 z'/>
	<use xlink:href='#gpPt13' id='gpPt14' fill='currentColor' stroke='none'/>
	<filter id='textbox' filterUnits='objectBoundingBox' x='0' y='0' height='1' width='1'>
	  <feFlood flood-color='#FFFFFF' flood-opacity='1' result='bgnd'/>
	  <feComposite in='SourceGraphic' in2='bgnd' operator='atop'/>
	</filter>
	<filter id='greybox' filterUnits='objectBoundingBox' x='0' y='0' height='1' width='1'>
	  <feFlood flood-color='lightgrey' flood-opacity='1' result='grey'/>
	  <feComposite in='SourceGraphic' in2='grey' operator='atop'/>
	</filter>
</defs>
<g fill="none" color="#FFFFFF" stroke="currentColor" stroke-width="1.00" stroke-linecap="butt" stroke-linejoin="miter">
</g>
<g fill="none" color="black" stroke="currentColor" stroke-width="1.00" stroke-linecap="butt" stroke-linejoin="miter">
	<path stroke='black'  d='M93.2,401.4 L102.2,401.4 M519.1,401.4 L510.1,401.4  '/>	<g transform="translate(84.9,405.3)" stroke="none" fill="black" font-family="Arial" font-size="12.00"  text-anchor="end">
		<text><tspan font-family="Arial" >-2</tspan></text>
	</g>
</g>
<g fill="none" color="black" stroke="currentColor" stroke-width="1.00" stroke-linecap="butt" stroke-linejoin="miter">
	<path stroke='black'  d='M93.2,316.2 L102.2,316.2 M519.1,316.2 L510.1,316.2  '/>	<g transform="translate(84.9,320.1)" stroke="none" fill="black" font-family="Arial" font-size="12.00"  text-anchor="end">
		<text><tspan font-family="Arial" >-1</tspan></text>
	</g>
</g>
<g fill="none" color="black" stroke="currentColor" stroke-width="1.00" stroke-linecap="butt" stroke-linejoin="miter">
	<path stroke='black'  d='M93.2,231.0 L102.2,231.0 M519.1,231.0 L510.1,231.0  '/>	<g transform="translate(84.9,234.9)" stroke="none" fill="black" font-family="Arial" font-size="12.00"  text-anchor="end">
		<text><tspan font-family="Arial" > 0</tspan></text>
	</g>
</g>
<g fill="none" color="black" stroke="currentColor" stroke-width="1.00" stroke-linecap="butt" stroke-linejoin="miter">
	<path stroke='black'  d='M93.2,145.9 L102.2,145.9 M519.1,145.9 L510.1,145.9  '/>	<g transform="translate(84.9,149.8)" stroke="none" fill="black" font-family="Arial" font-size="12.00"  text-anchor="end">
		<text><tspan font-family="Arial" > 1</tspan></text>
	</g>
</g>
<g fill="none" color="black" stroke="currentColor" stroke-width="1.00" stroke-linecap="butt" stroke-linejoin="miter">
	<path stroke='black'  d='M93.2,60.7 L102.2,60.7 M519.1,60.7 L510.1,60.7  '/>	<g transform="translate(84.9,64.6)" stroke="none" fill="black" font-family="Arial" font-size="12.00"  text-anchor="end">
		<text><tspan font-family="Arial" > 2</tspan></text>
	</g>
</g>
<g fill="none" color="black" stroke="currentColor" stroke-width="1.00" stroke-linecap="butt" stroke-linejoin="miter">
	<path stroke='black'  d='M135.8,444.0 L135.8,435.0 M135.8,18.1 L135.8,27.1  '/>	<g transform="translate(135.8,465.9)" stroke="none" fill="black" font-family="Arial" font-size="12.00"  text-anchor="middle">
		<text><tspan font-family="Arial" >-2</tspan></text>
	</g>
</g>
<g fill="none" color="black" stroke="currentColor" stroke-width="1.00" stroke-linecap="butt" stroke-linejoin="miter">
	<path stroke='black'  d='M221.0,444.0 L221.0,435.0 M221.0,18.1 L221.0,27.1  '/>	<g transform="translate(221.0,465.9)" stroke="none" fill="black" font-family="Arial" font-size="12.00"  text-anchor="middle">
		<text><tspan font-family="Arial" >-1</tspan></text>
	</g>
</g>
<g fill="none" color="black" stroke="currentColor" stroke-width="1.00" stroke-linecap="butt" stroke-linejoin="miter">
	<path stroke='black'  d='M306.2,444.0 L306.2,435.0 M306.2,18.1 L306.2,27.1  '/>	<g transform="translate(306.2,465.9)" stroke="none" fill="black" font-family="Arial" font-size="12.00"  text-anchor="middle">
		<text><tspan font-family="Arial" > 0</tspan></text>
	</g>
</g>
<g fill="none" color="black" stroke="currentColor" stroke-width="1.00" stroke-linecap="butt" stroke-linejoin="miter">
	<path stroke='black'  d='M391.3,444.0 L391.3,435.0 M391.3,18.1 L391.3,27.1  '/>	<g transform="translate(391.3,465.9)" stroke="none" fill="black" font-family="Arial" font-size="12.00"  text-anchor="middle">
		<text><tspan font-family="Arial" > 1</tspan></text>
	</g>
</g>
<g fill="none" color="black" stroke="currentColor" stroke-width="1.00" stroke-linecap="butt" stroke-linejoin="miter">
	<path stroke='black'  d='M476.5,444.0 L476.5,435.0 M476.5,18.1 L476.5,27.1  '/>	<g transform="translate(476.5,465.9)" stroke="none" fill="black" font-family="Arial" font-size="12.00"  text-anchor="middle">
		<text><tspan font-family="Arial" > 2</tspan></text>
	</g>
</g>
<g fill="none" color="black" stroke="currentColor" stroke-width="1.00" stroke-linecap="butt" stroke-linejoin="miter">
</g>
<g fill="none" color="black" stroke="currentColor" stroke-width="1.00" stroke-linecap="butt" stroke-linejoin="miter">
	<path stroke='black'  d='M93.2,18.1 L93.2,444.0 L519.1,444.0 L519.1,18.1 L93.2,18.1 Z  '/></g>
<g fill="none" color="black" stroke="currentColor" stroke-width="1.00" stroke-linecap="butt" stroke-linejoin="miter">
</g>
	<g id="gnuplot_plot_1" ><title>phi = 0...50*2pi, (u,u',eps) = 1.0 0.0 0.0</title>
<g fill="none" color="black" stroke="currentColor" stroke-width="1.00" stroke-linecap="butt" stroke-linejoin="miter">
	<g transform="translate(452.0,40.0)" stroke="none" fill="black" font-family="Arial" font-size="12.00"  text-anchor="end">
		<text><tspan font-family="Arial" >phi = 0...50*2pi, (u,u',eps) = 1.0 0.0 0.0</tspan></text>
	</g>
</g>
<g fill="none" color="black" stroke="currentColor" stroke-width="1.00" stroke-linecap="butt" stroke-linejoin="miter">
	<path stroke='rgb(148,   0, 211)'  d='M460.3,36.1 L502.5,36.1 M306.2,145.9 L311.5,146.0 L316.8,146.5 L322.1,147.4 L327.3,148.5 L332.5,150.0
		L337.5,151.9 L342.4,154.0 L347.2,156.4 L351.8,159.1 L356.2,162.1 L360.4,165.4 L364.5,169.0 L368.2,172.7
		L371.8,176.8 L375.1,181.0 L378.1,185.4 L380.8,190.0 L383.2,194.8 L385.3,199.7 L387.2,204.7 L388.7,209.9
		L389.8,215.1 L390.7,220.4 L391.2,225.7 L391.3,231.1 L391.2,236.4 L390.7,241.7 L389.8,247.0 L388.7,252.2
		L387.2,257.4 L385.3,262.4 L383.2,267.3 L380.8,272.1 L378.1,276.7 L375.1,281.1 L371.8,285.3 L368.2,289.4
		L364.5,293.1 L360.4,296.7 L356.2,300.0 L351.8,303.0 L347.2,305.7 L342.4,308.1 L337.5,310.2 L332.5,312.1
		L327.3,313.6 L322.1,314.7 L316.8,315.6 L311.5,316.1 L306.2,316.2 L300.8,316.1 L295.5,315.6 L290.2,314.7
		L285.0,313.6 L279.8,312.1 L274.8,310.2 L269.9,308.1 L265.1,305.7 L260.5,303.0 L256.1,300.0 L251.9,296.7
		L247.8,293.1 L244.1,289.4 L240.5,285.3 L237.2,281.1 L234.2,276.7 L231.5,272.1 L229.1,267.3 L227.0,262.4
		L225.1,257.4 L223.6,252.2 L222.5,247.0 L221.6,241.7 L221.1,236.4 L221.0,231.0 L221.1,225.7 L221.6,220.4
		L222.5,215.1 L223.6,209.9 L225.1,204.7 L227.0,199.7 L229.1,194.8 L231.5,190.0 L234.2,185.4 L237.2,181.0
		L240.5,176.8 L244.1,172.7 L247.8,169.0 L251.9,165.4 L256.1,162.1 L260.5,159.1 L265.1,156.4 L269.9,154.0
		L274.8,151.9 L279.8,150.0 L285.0,148.5 L290.2,147.4 L295.5,146.5 L300.8,146.0 L306.2,145.9 L311.5,146.0
		L316.8,146.5 L322.1,147.4 L327.3,148.5 L332.5,150.0 L337.5,151.9 L342.4,154.0 L347.2,156.4 L351.8,159.1
		L356.2,162.1 L360.4,165.4 L364.5,169.0 L368.2,172.7 L371.8,176.8 L375.1,181.0 L378.1,185.4 L380.8,190.0
		L383.2,194.8 L385.3,199.7 L387.2,204.7 L388.7,209.9 L389.8,215.1 L390.7,220.4 L391.2,225.7 L391.3,231.0
		L391.2,236.4 L390.7,241.7 L389.8,247.0 L388.7,252.2 L387.2,257.4 L385.3,262.4 L383.2,267.3 L380.8,272.1
		L378.1,276.7 L375.1,281.1 L371.8,285.3 L368.2,289.4 L364.5,293.1 L360.4,296.7 L356.2,300.0 L351.8,303.0
		L347.2,305.7 L342.4,308.1 L337.5,310.2 L332.5,312.1 L327.3,313.6 L322.1,314.7 L316.8,315.6 L311.5,316.1
		L306.1,316.2 L300.8,316.1 L295.5,315.6 L290.2,314.7 L285.0,313.6 L279.8,312.1 L274.8,310.2 L269.9,308.1
		L265.1,305.7 L260.5,303.0 L256.1,300.0 L251.9,296.7 L247.8,293.1 L244.1,289.4 L240.5,285.3 L237.2,281.1
		L234.2,276.7 L231.5,272.1 L229.1,267.3 L227.0,262.4 L225.1,257.4 L223.6,252.2 L222.5,247.0 L221.6,241.7
		L221.1,236.4 L221.0,231.0 L221.1,225.7 L221.6,220.4 L222.5,215.1 L223.6,209.9 L225.1,204.7 L227.0,199.7
		L229.1,194.8 L231.5,190.0 L234.2,185.4 L237.2,181.0 L240.5,176.8 L244.1,172.7 L247.8,169.0 L251.9,165.4
		L256.1,162.1 L260.5,159.1 L265.1,156.4 L269.9,154.0 L274.8,151.9 L279.8,150.0 L285.0,148.5 L290.2,147.4
		L295.5,146.5 L300.8,146.0 L306.2,145.9 L311.5,146.0 L316.8,146.5 L322.1,147.4 L327.3,148.5 L332.5,150.0
		L337.5,151.9 L342.4,154.0 L347.2,156.4 L351.8,159.1 L356.2,162.1 L360.4,165.4 L364.5,169.0 L368.2,172.7
		L371.8,176.8 L375.1,181.0 L378.1,185.4 L380.8,190.0 L383.2,194.8 L385.3,199.7 L387.2,204.7 L388.7,209.9
		L389.8,215.1 L390.7,220.4 L391.2,225.7 L391.3,231.1 L391.2,236.4 L390.7,241.7 L389.8,247.0 L388.7,252.2
		L387.2,257.4 L385.3,262.4 L383.2,267.3 L380.8,272.1 L378.1,276.7 L375.1,281.1 L371.8,285.3 L368.2,289.4
		L364.5,293.1 L360.4,296.7 L356.2,300.0 L351.8,303.0 L347.2,305.7 L342.4,308.1 L337.5,310.2 L332.5,312.1
		L327.3,313.6 L322.1,314.7 L316.8,315.6 L311.5,316.1 L306.1,316.2 L300.8,316.1 L295.5,315.6 L290.2,314.7
		L285.0,313.6 L279.8,312.1 L274.8,310.2 L269.9,308.1 L265.1,305.7 L260.5,303.0 L256.1,300.0 L251.9,296.7
		L247.8,293.1 L244.1,289.4 L240.5,285.3 L237.2,281.1 L234.2,276.7 L231.5,272.1 L229.1,267.3 L227.0,262.4
		L225.1,257.4 L223.6,252.2 L222.5,247.0 L221.6,241.7 L221.1,236.4 L221.0,231.0 L221.1,225.7 L221.6,220.4
		L222.5,215.1 L223.6,209.9 L225.1,204.7 L227.0,199.7 L229.1,194.8 L231.5,190.0 L234.2,185.4 L237.2,181.0
		L240.5,176.8 L244.1,172.7 L247.8,169.0 L251.9,165.4 L256.1,162.1 L260.5,159.1 L265.1,156.4 L269.9,154.0
		L274.8,151.9 L279.8,150.0 L285.0,148.5 L290.2,147.4 L295.5,146.5 L300.8,146.0 L306.2,145.9 L311.5,146.0
		L316.8,146.5 L322.1,147.4 L327.3,148.5 L332.5,150.0 L337.5,151.9 L342.4,154.0 L347.2,156.4 L351.8,159.1
		L356.2,162.1 L360.4,165.4 L364.5,169.0 L368.2,172.7 L371.8,176.8 L375.1,181.0 L378.1,185.4 L380.8,190.0
		L383.2,194.8 L385.3,199.7 L387.2,204.7 L388.7,209.9 L389.8,215.1 L390.7,220.4 L391.2,225.7 L391.3,231.1
		L391.2,236.4 L390.7,241.7 L389.8,247.0 L388.7,252.2 L387.2,257.4 L385.3,262.4 L383.2,267.3 L380.8,272.1
		L378.1,276.7 L375.1,281.1 L371.8,285.3 L368.2,289.4 L364.5,293.1 L360.4,296.7 L356.2,300.0 L351.8,303.0
		L347.2,305.7 L342.4,308.1 L337.5,310.2 L332.5,312.1 L327.3,313.6 L322.1,314.7 L316.8,315.6 L311.5,316.1
		L306.2,316.2 L300.8,316.1 L295.5,315.6 L290.2,314.7 L285.0,313.6 L279.8,312.1 L274.8,310.2 L269.9,308.1
		L265.1,305.7 L260.5,303.0 L256.1,300.0 L251.9,296.7 L247.8,293.1 L244.1,289.4 L240.5,285.3 L237.2,281.1
		L234.2,276.7 L231.5,272.1 L229.1,267.3 L227.0,262.4 L225.1,257.4 L223.6,252.2 L222.5,247.0 L221.6,241.7
		L221.1,236.4 L221.0,231.1 L221.1,225.7 L221.6,220.4 L222.5,215.1 L223.6,209.9 L225.1,204.7 L227.0,199.7
		L229.1,194.8 L231.5,190.0 L234.2,185.4 L237.2,181.0 L240.5,176.8 L244.1,172.7 L247.8,169.0 L251.9,165.4
		L256.1,162.1 L260.5,159.1 L265.1,156.4 L269.9,154.0 L274.8,151.9 L279.8,150.0 L285.0,148.5 L290.2,147.4
		L295.5,146.5 L300.8,146.0 L306.1,145.9 L311.5,146.0 L316.8,146.5 L322.1,147.4 L327.3,148.5 L332.5,150.0
		L337.5,151.9 L342.4,154.0 L347.2,156.4 L351.8,159.1 L356.2,162.1 L360.4,165.4 L364.5,169.0 L368.2,172.7
		L371.8,176.8 L375.1,181.0 L378.1,185.4 L380.8,190.0 L383.2,194.8 L385.3,199.7 L387.2,204.7 L388.7,209.9
		L389.8,215.1 L390.7,220.4 L391.2,225.7 L391.3,231.0 L391.2,236.4 L390.7,241.7 L389.8,247.0 L388.7,252.2
		L387.2,257.4 L385.3,262.4 L383.2,267.3 L380.8,272.1 L378.1,276.7 L375.1,281.1 L371.8,285.3 L368.2,289.4
		L364.5,293.1 L360.4,296.7 L356.2,300.0 L351.8,303.0 L347.2,305.7 L342.4,308.1 L337.5,310.2 L332.5,312.1
		L327.3,313.6 L322.1,314.7 L316.8,315.6 L311.5,316.1 L306.2,316.2 L300.8,316.1 L295.5,315.6 L290.2,314.7
		L285.0,313.6 L279.8,312.1 L274.8,310.2 L269.9,308.1 L265.1,305.7 L260.5,303.0 L256.1,300.0 L251.9,296.7
		L247.8,293.1 L244.1,289.4 L240.5,285.3 L237.2,281.1 L234.2,276.7 L231.5,272.1 L229.1,267.3 L227.0,262.4
		L225.1,257.4 L223.6,252.2 L222.5,247.0 L221.6,241.7 L221.1,236.4 L221.0,231.1 L221.1,225.7 L221.6,220.4
		L222.5,215.1 L223.6,209.9 L225.1,204.7 L227.0,199.7 L229.1,194.8 L231.5,190.0 L234.2,185.4 L237.2,181.0
		L240.5,176.8 L244.1,172.7 L247.8,169.0 L251.9,165.4 L256.1,162.1 L260.5,159.1 L265.1,156.4 L269.9,154.0
		L274.8,151.9 L279.8,150.0 L285.0,148.5 L290.2,147.4 L295.5,146.5 L300.8,146.0 L306.1,145.9 L311.5,146.0
		L316.8,146.5 L322.1,147.4 L327.3,148.5 L332.5,150.0 L337.5,151.9 L342.4,154.0 L347.2,156.4 L351.8,159.1
		L356.2,162.1 L360.4,165.4 L364.5,169.0 L368.2,172.7 L371.8,176.8 L375.1,181.0 L378.1,185.4 L380.8,190.0
		L383.2,194.8 L385.3,199.7 L387.2,204.7 L388.7,209.9 L389.8,215.1 L390.7,220.4 L391.2,225.7 L391.3,231.0
		L391.2,236.4 L390.7,241.7 L389.8,247.0 L388.7,252.2 L387.2,257.4 L385.3,262.4 L383.2,267.3 L380.8,272.1
		L378.1,276.7 L375.1,281.1 L371.8,285.3 L368.2,289.4 L364.5,293.1 L360.4,296.7 L356.2,300.0 L351.8,303.0
		L347.2,305.7 L342.4,308.1 L337.5,310.2 L332.5,312.1 L327.3,313.6 L322.1,314.7 L316.8,315.6 L311.5,316.1
		L306.2,316.2 L300.8,316.1 L295.5,315.6 L290.2,314.7 L285.0,313.6 L279.8,312.1 L274.8,310.2 L269.9,308.1
		L265.1,305.7 L260.5,303.0 L256.1,300.0 L251.9,296.7 L247.8,293.1 L244.1,289.4 L240.5,285.3 L237.2,281.1
		L234.2,276.7 L231.5,272.1 L229.1,267.3 L227.0,262.4 L225.1,257.4 L223.6,252.2 L222.5,247.0 L221.6,241.7
		L221.1,236.4 L221.0,231.1 L221.1,225.7 L221.6,220.4 L222.5,215.1 L223.6,209.9 L225.1,204.7 L227.0,199.7
		L229.1,194.8 L231.5,190.0 L234.2,185.4 L237.2,181.0 L240.5,176.8 L244.1,172.7 L247.8,169.0 L251.9,165.4
		L256.1,162.1 L260.5,159.1 L265.1,156.4 L269.9,154.0 L274.8,151.9 L279.8,150.0 L285.0,148.5 L290.2,147.4
		L295.5,146.5 L300.8,146.0 L306.1,145.9 L311.5,146.0 L316.8,146.5 L322.1,147.4 L327.3,148.5 L332.5,150.0
		L337.5,151.9 L342.4,154.0 L347.2,156.4 L351.8,159.1 L356.2,162.1 L360.4,165.4 L364.5,169.0 L368.2,172.7
		L371.8,176.8 L375.1,181.0 L378.1,185.4 L380.8,190.0 L383.2,194.8 L385.3,199.7 L387.2,204.7 L388.7,209.9
		L389.8,215.1 L390.7,220.4 L391.2,225.7 L391.3,231.0 L391.2,236.4 L390.7,241.7 L389.8,247.0 L388.7,252.2
		L387.2,257.4 L385.3,262.4 L383.2,267.3 L380.8,272.1 L378.1,276.7 L375.1,281.1 L371.8,285.3 L368.2,289.4
		L364.5,293.1 L360.4,296.7 L356.2,300.0 L351.8,303.0 L347.2,305.7 L342.4,308.1 L337.5,310.2 L332.5,312.1
		L327.3,313.6 L322.1,314.7 L316.8,315.6 L311.5,316.1 L306.2,316.2 L300.8,316.1 L295.5,315.6 L290.2,314.7
		L285.0,313.6 L279.8,312.1 L274.8,310.2 L269.9,308.1 L265.1,305.7 L260.5,303.0 L256.1,300.0 L251.9,296.7
		L247.8,293.1 L244.1,289.4 L240.5,285.3 L237.2,281.1 L234.2,276.7 L231.5,272.1 L229.1,267.3 L227.0,262.4
		L225.1,257.4 L223.6,252.2 L222.5,247.0 L221.6,241.7 L221.1,236.4 L221.0,231.1 L221.1,225.7 L221.6,220.4
		L222.5,215.1 L223.6,209.9 L225.1,204.7 L227.0,199.7 L229.1,194.8 L231.5,190.0 L234.2,185.4 L237.2,181.0
		L240.5,176.8 L244.1,172.7 L247.8,169.0 L251.9,165.4 L256.1,162.1 L260.5,159.1 L265.1,156.4 L269.9,154.0
		L274.8,151.9 L279.8,150.0 L285.0,148.5 L290.2,147.4 L295.5,146.5 L300.8,146.0 L306.2,145.9 L311.5,146.0
		L316.8,146.5 L322.1,147.4 L327.3,148.5 L332.5,150.0 L337.5,151.9 L342.4,154.0 L347.2,156.4 L351.8,159.1
		L356.2,162.1 L360.4,165.4 L364.5,169.0 L368.2,172.7 L371.8,176.8 L375.1,181.0 L378.1,185.4 L380.8,190.0
		L383.2,194.8 L385.3,199.7 L387.2,204.7 L388.7,209.9 L389.8,215.1 L390.7,220.4 L391.2,225.7 L391.3,231.1
		L391.2,236.4 L390.7,241.7 L389.8,247.0 L388.7,252.2 L387.2,257.4 L385.3,262.4 L383.2,267.3 L380.8,272.1
		L378.1,276.7 L375.1,281.1 L371.8,285.3 L368.2,289.4 L364.5,293.1 L360.4,296.7 L356.2,300.0 L351.8,303.0
		L347.2,305.7 L342.4,308.1 L337.5,310.2 L332.5,312.1 L327.3,313.6 L322.1,314.7 L316.8,315.6 L311.5,316.1
		L306.1,316.2 L300.8,316.1 L295.5,315.6 L290.2,314.7 L285.0,313.6 L279.8,312.1 L274.8,310.2 L269.9,308.1
		L265.1,305.7 L260.5,303.0 L256.1,300.0 L251.9,296.7 L247.8,293.1 L244.1,289.4 L240.5,285.3 L237.2,281.1
		L234.2,276.7 L231.5,272.1 L229.1,267.3 L227.0,262.4 L225.1,257.4 L223.6,252.2 L222.5,247.0 L221.6,241.7
		L221.1,236.4 L221.0,231.0 L221.1,225.7 L221.6,220.4 L222.5,215.1 L223.6,209.9 L225.1,204.7 L227.0,199.7
		L229.1,194.8 L231.5,190.0 L234.2,185.4 L237.2,181.0 L240.5,176.8 L244.1,172.7 L247.8,169.0 L251.9,165.4
		L256.1,162.1 L260.5,159.1 L265.1,156.4 L269.9,154.0 L274.8,151.9 L279.8,150.0 L285.0,148.5 L290.2,147.4
		L295.5,146.5 L300.8,146.0 L306.2,145.9 L311.5,146.0 L316.8,146.5 L322.1,147.4 L327.3,148.5 L332.5,150.0
		L337.5,151.9 L342.4,154.0 L347.2,156.4 L351.8,159.1 L356.2,162.1 L360.4,165.4 L364.5,169.0 L368.2,172.7
		L371.8,176.8 L375.1,181.0 L378.1,185.4 L380.8,190.0 L383.2,194.8 L385.3,199.7 L387.2,204.7 L388.7,209.9
		L389.8,215.1 L390.7,220.4 L391.2,225.7 L391.3,231.1 L391.2,236.4 L390.7,241.7 L389.8,247.0 L388.7,252.2
		L387.2,257.4 L385.3,262.4 L383.2,267.3 L380.8,272.1 L378.1,276.7 L375.1,281.1 L371.8,285.3 L368.2,289.4
		L364.5,293.1 L360.4,296.7 L356.2,300.0 L351.8,303.0 L347.2,305.7 L342.4,308.1 L337.5,310.2 L332.5,312.1
		L327.3,313.6 L322.1,314.7 L316.8,315.6 L311.5,316.1 L306.1,316.2 L300.8,316.1 L295.5,315.6 L290.2,314.7
		L285.0,313.6 L279.8,312.1 L274.8,310.2 L269.9,308.1 L265.1,305.7 L260.5,303.0 L256.1,300.0 L251.9,296.7
		L247.8,293.1 L244.1,289.4 L240.5,285.3 L237.2,281.1 L234.2,276.7 L231.5,272.1 L229.1,267.3 L227.0,262.4
		L225.1,257.4 L223.6,252.2 L222.5,247.0 L221.6,241.7 L221.1,236.4 L221.0,231.0 L221.1,225.7 L221.6,220.4
		L222.5,215.1 L223.6,209.9 L225.1,204.7 L227.0,199.7 L229.1,194.8 L231.5,190.0 L234.2,185.4 L237.2,181.0
		L240.5,176.8 L244.1,172.7 L247.8,169.0 L251.9,165.4 L256.1,162.1 L260.5,159.1 L265.1,156.4 L269.9,154.0
		L274.8,151.9 L279.8,150.0 L285.0,148.5 L290.2,147.4 L295.5,146.5 L300.8,146.0 L306.2,145.9 L311.5,146.0
		L316.8,146.5 L322.1,147.4 L327.3,148.5 L332.5,150.0 L337.5,151.9 L342.4,154.0 L347.2,156.4 L351.8,159.1
		L356.2,162.1 L360.4,165.4 L364.5,169.0 L368.2,172.7 L371.8,176.8 L375.1,181.0 L378.1,185.4 L380.8,190.0
		L383.2,194.8 L385.3,199.7 L387.2,204.7 L388.7,209.9 L389.8,215.1 L390.7,220.4 L391.2,225.7 L391.3,231.1
		L391.2,236.4 L390.7,241.7 L389.8,247.0 L388.7,252.2 L387.2,257.4 L385.3,262.4 L383.2,267.3 L380.8,272.1
		L378.1,276.7 L375.1,281.1 L371.8,285.3 L368.2,289.4 L364.5,293.1 L360.4,296.7 L356.2,300.0 L351.8,303.0
		L347.2,305.7 L342.4,308.1 L337.5,310.2 L332.5,312.1 L327.3,313.6 L322.1,314.7 L316.8,315.6 L311.5,316.1
		L306.1,316.2 L300.8,316.1 L295.5,315.6 L290.2,314.7 L285.0,313.6 L279.8,312.1 L274.8,310.2 L269.9,308.1
		L265.1,305.7 L260.5,303.0 L256.1,300.0 L251.9,296.7 L247.8,293.1 L244.1,289.4 L240.5,285.3 L237.2,281.1
		L234.2,276.7 L231.5,272.1 L229.1,267.3 L227.0,262.4 L225.1,257.4 L223.6,252.2 L222.5,247.0 L221.6,241.7
		L221.1,236.4 L221.0,231.0 L221.1,225.7 L221.6,220.4 L222.5,215.1 L223.6,209.9 L225.1,204.7 L227.0,199.7
		L229.1,194.8 L231.5,190.0 L234.2,185.4 L237.2,181.0 L240.5,176.8 L244.1,172.7 L247.8,169.0 L251.9,165.4
		L256.1,162.1 L260.5,159.1 L265.1,156.4 L269.9,154.0 L274.8,151.9 L279.8,150.0 L285.0,148.5 L290.2,147.4
		L295.5,146.5 L300.8,146.0 L306.2,145.9 L311.5,146.0 L316.8,146.5 L322.1,147.4 L327.3,148.5 L332.5,150.0
		L337.5,151.9 L342.4,154.0 L347.2,156.4 L351.8,159.1 L356.2,162.1 L360.4,165.4 L364.5,169.0 L368.2,172.7
		L371.8,176.8 L375.1,181.0 L378.1,185.4 L380.8,190.0 L383.2,194.8 L385.3,199.7 L387.2,204.7 L388.7,209.9
		L389.8,215.1 L390.7,220.4 L391.2,225.7 L391.3,231.0 L391.2,236.4 L390.7,241.7 L389.8,247.0 L388.7,252.2
		L387.2,257.4 L385.3,262.4 L383.2,267.3 L380.8,272.1 L378.1,276.7 L375.1,281.1 L371.8,285.3 L368.2,289.4
		L364.5,293.1 L360.4,296.7 L356.2,300.0 L351.8,303.0 L347.2,305.7 L342.4,308.1 L337.5,310.2 L332.5,312.1
		L327.3,313.6 L322.1,314.7 L316.8,315.6 L311.5,316.1 L306.2,316.2 L300.8,316.1 L295.5,315.6 L290.2,314.7
		L285.0,313.6 L279.8,312.1 L274.8,310.2 L269.9,308.1 L265.1,305.7 L260.5,303.0 L256.1,300.0 L251.9,296.7
		L247.8,293.1 L244.1,289.4 L240.5,285.3 L237.2,281.1 L234.2,276.7 L231.5,272.1 L229.1,267.3 L227.0,262.4
		L225.1,257.4 L223.6,252.2 L222.5,247.0 L221.6,241.7 L221.1,236.4 L221.0,231.1 L221.1,225.7 L221.6,220.4
		L222.5,215.1 L223.6,209.9 L225.1,204.7 L227.0,199.7 L229.1,194.8 L231.5,190.0 L234.2,185.4 L237.2,181.0
		L240.5,176.8 L244.1,172.7 L247.8,169.0 L251.9,165.4 L256.1,162.1 L260.5,159.1 L265.1,156.4 L269.9,154.0
		L274.8,151.9 L279.8,150.0 L285.0,148.5 L290.2,147.4 L295.5,146.5 L300.8,146.0 L306.1,145.9 L311.5,146.0
		L316.8,146.5 L322.1,147.4 L327.3,148.5 L332.5,150.0 L337.5,151.9 L342.4,154.0 L347.2,156.4 L351.8,159.1
		L356.2,162.1 L360.4,165.4 L364.5,169.0 L368.2,172.7 L371.8,176.8 L375.1,181.0 L378.1,185.4 L380.8,190.0
		L383.2,194.8 L385.3,199.7 L387.2,204.7 L388.7,209.9 L389.8,215.1 L390.7,220.4 L391.2,225.7 L391.3,231.0
		L391.2,236.4 L390.7,241.7 L389.8,247.0 L388.7,252.2 L387.2,257.4 L385.3,262.4 L383.2,267.3 L380.8,272.1
		L378.1,276.7 L375.1,281.1 L371.8,285.3 L368.2,289.4 L364.5,293.1 L360.4,296.7 L356.2,300.0 L351.8,303.0
		L347.2,305.7 L342.4,308.1 L337.5,310.2 L332.5,312.1 L327.3,313.6 L322.1,314.7 L316.8,315.6 L311.5,316.1
		L306.2,316.2 L300.8,316.1 L295.5,315.6 L290.2,314.7 L285.0,313.6 L279.8,312.1 L274.8,310.2 L269.9,308.1
		L265.1,305.7 L260.5,303.0 L256.1,300.0 L251.9,296.7 L247.8,293.1 L244.1,289.4 L240.5,285.3 L237.2,281.1
		L234.2,276.7 L231.5,272.1 L229.1,267.3 L227.0,262.4 L225.1,257.4 L223.6,252.2 L222.5,247.0 L221.6,241.7
		L221.1,236.4 L221.0,231.1 L221.1,225.7 L221.6,220.4 L222.5,215.1 L223.6,209.9 L225.1,204.7 L227.0,199.7
		L229.1,194.8 L231.5,190.0 L234.2,185.4 L237.2,181.0 L240.5,176.8 L244.1,172.7 L247.8,169.0 L251.9,165.4
		L256.1,162.1 L260.5,159.1 L265.1,156.4 L269.9,154.0 L274.8,151.9 L279.8,150.0 L285.0,148.5 L290.2,147.4
		L295.5,146.5 L300.8,146.0 L306.1,145.9 L311.5,146.0 L316.8,146.5 L322.1,147.4 L327.3,148.5 L332.5,150.0
		L337.5,151.9 L342.4,154.0 L347.2,156.4 L351.8,159.1 L356.2,162.1 L360.4,165.4 L364.5,169.0 L368.2,172.7
		L371.8,176.8 L375.1,181.0 L378.1,185.4 L380.8,190.0 L383.2,194.8 L385.3,199.7 L387.2,204.7 L388.7,209.9
		L389.8,215.1 L390.7,220.4 L391.2,225.7 L391.3,231.0 L391.2,236.4 L390.7,241.7 L389.8,247.0 L388.7,252.2
		L387.2,257.4 L385.3,262.4 L383.2,267.3 L380.8,272.1 L378.1,276.7 L375.1,281.1 L371.8,285.3 L368.2,289.4
		L364.5,293.1 L360.4,296.7 L356.2,300.0 L351.8,303.0 L347.2,305.7 L342.4,308.1 L337.5,310.2 L332.5,312.1
		L327.3,313.6 L322.1,314.7 L316.8,315.6 L311.5,316.1 L306.2,316.2 L300.8,316.1 L295.5,315.6 L290.2,314.7
		L285.0,313.6 L279.8,312.1 L274.8,310.2 L269.9,308.1 L265.1,305.7 L260.5,303.0 L256.1,300.0 L251.9,296.7
		L247.8,293.1 L244.1,289.4 L240.5,285.3 L237.2,281.1 L234.2,276.7 L231.5,272.1 L229.1,267.3 L227.0,262.4
		L225.1,257.4 L223.6,252.2 L222.5,247.0 L221.6,241.7 L221.1,236.4 L221.0,231.1 L221.1,225.7 L221.6,220.4
		L222.5,215.1 L223.6,209.9 L225.1,204.7 L227.0,199.7 L229.1,194.8 L231.5,190.0 L234.2,185.4 L237.2,181.0
		L240.5,176.8 L244.1,172.7 L247.8,169.0 L251.9,165.4 L256.1,162.1 L260.5,159.1 L265.1,156.4 L269.9,154.0
		L274.8,151.9 L279.8,150.0 L285.0,148.5 L290.2,147.4 L295.5,146.5 L300.8,146.0 L306.1,145.9 L311.5,146.0
		L316.8,146.5 L322.1,147.4 L327.3,148.5 L332.5,150.0 L337.5,151.9 L342.4,154.0 L347.2,156.4 L351.8,159.1
		L356.2,162.1 L360.4,165.4 L364.5,169.0 L368.2,172.7 L371.8,176.8 L375.1,181.0 L378.1,185.4 L380.8,190.0
		L383.2,194.8 L385.3,199.7 L387.2,204.7 L388.7,209.9 L389.8,215.1 L390.7,220.4 L391.2,225.7 L391.3,231.0
		L391.2,236.4 L390.7,241.7 L389.8,247.0 L388.7,252.2 L387.2,257.4 L385.3,262.4 L383.2,267.3 L380.8,272.1
		L378.1,276.7 L375.1,281.1 L371.8,285.3 L368.2,289.4 L364.5,293.1 L360.4,296.7 L356.2,300.0 L351.8,303.0
		L347.2,305.7 L342.4,308.1 L337.5,310.2 L332.5,312.1 L327.3,313.6 L322.1,314.7 L316.8,315.6 L311.5,316.1
		L306.2,316.2 L300.8,316.1 L295.5,315.6 L290.2,314.7 L285.0,313.6 L279.8,312.1 L274.8,310.2 L269.9,308.1
		L265.1,305.7 L260.5,303.0 L256.1,300.0 L251.9,296.7 L247.8,293.1 L244.1,289.4 L240.5,285.3 L237.2,281.1
		L234.2,276.7 L231.5,272.1 L229.1,267.3 L227.0,262.4 L225.1,257.4 L223.6,252.2 L222.5,247.0 L221.6,241.7
		L221.1,236.4 L221.0,231.0 L221.1,225.7 L221.6,220.4 L222.5,215.1 L223.6,209.9 L225.1,204.7 L227.0,199.7
		L229.1,194.8 L231.5,190.0 L234.2,185.4 L237.2,181.0 L240.5,176.8 L244.1,172.7 L247.8,169.0 L251.9,165.4
		L256.1,162.1 L260.5,159.1 L265.1,156.4 L269.9,154.0 L274.8,151.9 L279.8,150.0 L285.0,148.5 L290.2,147.4
		L295.5,146.5 L300.8,146.0 L306.2,145.9 L311.5,146.0 L316.8,146.5 L322.1,147.4 L327.3,148.5 L332.5,150.0
		L337.5,151.9 L342.4,154.0 L347.2,156.4 L351.8,159.1 L356.2,162.1 L360.4,165.4 L364.5,169.0 L368.2,172.7
		L371.8,176.8 L375.1,181.0 L378.1,185.4 L380.8,190.0 L383.2,194.8 L385.3,199.7 L387.2,204.7 L388.7,209.9
		L389.8,215.1 L390.7,220.4 L391.2,225.7 L391.3,231.1 L391.2,236.4 L390.7,241.7 L389.8,247.0 L388.7,252.2
		L387.2,257.4 L385.3,262.4 L383.2,267.3 L380.8,272.1 L378.1,276.7 L375.1,281.1 L371.8,285.3 L368.2,289.4
		L364.5,293.1 L360.4,296.7 L356.2,300.0 L351.8,303.0 L347.2,305.7 L342.4,308.1 L337.5,310.2 L332.5,312.1
		L327.3,313.6 L322.1,314.7 L316.8,315.6 L311.5,316.1 L306.1,316.2 L300.8,316.1 L295.5,315.6 L290.2,314.7
		L285.0,313.6 L279.8,312.1 L274.8,310.2 L269.9,308.1 L265.1,305.7 L260.5,303.0 L256.1,300.0 L251.9,296.7
		L247.8,293.1 L244.1,289.4 L240.5,285.3 L237.2,281.1 L234.2,276.7 L231.5,272.1 L229.1,267.3 L227.0,262.4
		L225.1,257.4 L223.6,252.2 L222.5,247.0 L221.6,241.7 L221.1,236.4 L221.0,231.0 L221.1,225.7 L221.6,220.4
		L222.5,215.1 L223.6,209.9 L225.1,204.7 L227.0,199.7 L229.1,194.8 L231.5,190.0 L234.2,185.4 L237.2,181.0
		L240.5,176.8 L244.1,172.7 L247.8,169.0 L251.9,165.4 L256.1,162.1 L260.5,159.1 L265.1,156.4 L269.9,154.0
		L274.8,151.9 L279.8,150.0 L285.0,148.5 L290.2,147.4 L295.5,146.5 L300.8,146.0 L306.2,145.9 L311.5,146.0
		L316.8,146.5 L322.1,147.4 L327.3,148.5 L332.5,150.0 L337.5,151.9 L342.4,154.0 L347.2,156.4 L351.8,159.1
		L356.2,162.1 L360.4,165.4 L364.5,169.0 L368.2,172.7 L371.8,176.8 L375.1,181.0 L378.1,185.4 L380.8,190.0
		L383.2,194.8 L385.3,199.7 L387.2,204.7 L388.7,209.9 L389.8,215.1 L390.7,220.4 L391.2,225.7 L391.3,231.1
		L391.2,236.4 L390.7,241.7 L389.8,247.0 L388.7,252.2 L387.2,257.4 L385.3,262.4 L383.2,267.3 L380.8,272.1
		L378.1,276.7 L375.1,281.1 L371.8,285.3 L368.2,289.4 L364.5,293.1 L360.4,296.7 L356.2,300.0 L351.8,303.0
		L347.2,305.7 L342.4,308.1 L337.5,310.2 L332.5,312.1 L327.3,313.6 L322.1,314.7 L316.8,315.6 L311.5,316.1
		L306.1,316.2 L300.8,316.1 L295.5,315.6 L290.2,314.7 L285.0,313.6 L279.8,312.1 L274.8,310.2 L269.9,308.1
		L265.1,305.7 L260.5,303.0 L256.1,300.0 L251.9,296.7 L247.8,293.1 L244.1,289.4 L240.5,285.3 L237.2,281.1
		L234.2,276.7 L231.5,272.1 L229.1,267.3 L227.0,262.4 L225.1,257.4 L223.6,252.2 L222.5,247.0 L221.6,241.7
		L221.1,236.4 L221.0,231.0 L221.1,225.7 L221.6,220.4 L222.5,215.1 L223.6,209.9 L225.1,204.7 L227.0,199.7
		L229.1,194.8 L231.5,190.0 L234.2,185.4 L237.2,181.0 L240.5,176.8 L244.1,172.7 L247.8,169.0 L251.9,165.4
		L256.1,162.1 L260.5,159.1 L265.1,156.4 L269.9,154.0 L274.8,151.9 L279.8,150.0 L285.0,148.5 L290.1,147.4
		L295.4,146.5 L300.8,146.0 L306.2,145.9 L311.5,146.0 L316.9,146.5 L322.1,147.4 L327.3,148.5 L332.5,150.0
		L337.5,151.9 L342.4,154.0 L347.2,156.4 L351.8,159.1 L356.2,162.1 L360.4,165.4 L364.5,169.0 L368.3,172.8
		L371.8,176.8 L375.0,181.0 L378.1,185.4 L380.8,190.0 L383.2,194.8 L385.4,199.7 L387.2,204.8 L388.6,209.8
		L389.8,215.1 L390.7,220.4 L391.2,225.7 L391.3,231.1 L391.2,236.4 L390.7,241.7 L389.8,247.0 L388.7,252.2
		L387.2,257.4 L385.3,262.4 L383.2,267.3 L380.8,272.1 L378.1,276.7 L375.1,281.1 L371.8,285.4 L368.2,289.4
		L364.4,293.2 L360.5,296.7 L356.2,300.0 L351.8,303.0 L347.2,305.7 L342.4,308.1 L337.5,310.3 L332.5,312.1
		L327.4,313.5 L322.1,314.7 L316.8,315.6 L311.5,316.1 L306.1,316.2 L300.8,316.1 L295.5,315.6 L290.2,314.7
		L285.0,313.6 L279.8,312.1 L274.8,310.2 L269.9,308.1 L265.1,305.7 L260.5,303.0 L256.1,300.0 L251.8,296.7
		L247.8,293.1 L244.1,289.4 L240.5,285.4 L237.2,281.1 L234.2,276.7 L231.5,272.1 L229.1,267.3 L227.0,262.4
		L225.1,257.4 L223.6,252.2 L222.5,247.0 L221.6,241.7 L221.1,236.4 L221.0,231.1 L221.1,225.7 L221.6,220.4
		L222.5,215.1 L223.7,209.8 L225.2,204.7 L226.9,199.7 L229.1,194.8 L231.5,190.0 L234.2,185.4 L237.3,181.0
		L240.5,176.7 L244.0,172.8 L247.8,169.0 L251.9,165.4 L256.1,162.1 L260.5,159.1 L265.1,156.4 L269.9,154.0
		L274.8,151.9 L279.8,150.0 L285.0,148.5 L290.2,147.4 L295.4,146.5 L300.8,146.0 L306.1,145.9 L311.5,146.0
		L316.8,146.5 L322.1,147.4 L327.3,148.5 L332.4,150.0 L337.5,151.8 L342.4,154.0 L347.2,156.4 L351.8,159.1
		L356.2,162.1 L360.4,165.4 L364.5,168.9 L368.2,172.7 L371.8,176.8 L375.1,181.0 L378.0,185.4 L380.8,190.0
		L383.2,194.8 L385.3,199.7 L387.2,204.7 L388.7,209.9 L389.8,215.1 L390.7,220.4 L391.2,225.7 L391.3,231.1
		L391.2,236.4 L390.7,241.8 L389.8,247.0 L388.7,252.2 L387.2,257.4 L385.3,262.4 L383.2,267.3 L380.8,272.1
		L378.1,276.7 L375.1,281.1 L371.8,285.3 L368.2,289.4 L364.4,293.2 L360.4,296.7 L356.2,299.9 L351.8,303.0
		L347.2,305.7 L342.4,308.1 L337.5,310.3 L332.4,312.1 L327.4,313.5 L322.1,314.7 L316.8,315.6 L311.5,316.1
		L306.1,316.2 L300.8,316.1 L295.5,315.6 L290.2,314.7 L285.0,313.6 L279.8,312.1 L274.8,310.2 L269.8,308.1
		L265.1,305.7 L260.5,303.0 L256.1,300.0 L251.8,296.7 L247.8,293.1 L244.0,289.3 L240.5,285.4 L237.2,281.1
		L234.2,276.7 L231.5,272.1 L229.1,267.3 L226.9,262.4 L225.1,257.4 L223.7,252.3 L222.5,247.0 L221.6,241.7
		L221.1,236.4 L221.0,231.0 L221.1,225.7 L221.6,220.4 L222.5,215.1 L223.6,209.9 L225.1,204.7 L227.0,199.7
		L229.1,194.8 L231.5,190.0 L234.2,185.4 L237.2,181.0 L240.5,176.7 L244.1,172.7 L247.8,169.0 L251.8,165.4
		L256.1,162.1 L260.5,159.1 L265.1,156.4 L269.9,154.0 L274.8,151.9 L279.8,150.0 L285.0,148.5 L290.2,147.4
		L295.5,146.5 L300.8,146.0 L306.1,145.9 L311.5,146.0 L316.8,146.5 L322.1,147.4 L327.4,148.6 L332.4,150.0
		L337.5,151.8 L342.4,154.0 L347.2,156.4 L351.8,159.1 L356.2,162.2 L360.4,165.4 L364.4,168.9 L368.2,172.7
		L371.8,176.8 L375.1,181.0 L378.1,185.4 L380.8,190.0 L383.2,194.8 L385.3,199.7 L387.2,204.7 L388.7,209.9
		L389.8,215.1 L390.7,220.3 L391.2,225.7 L391.3,231.0 L391.2,236.4 L390.7,241.7 L389.8,247.0 L388.7,252.2
		L387.2,257.3 L385.4,262.4 L383.2,267.3 L380.8,272.1 L378.1,276.7 L375.1,281.1 L371.8,285.3 L368.3,289.4
		L364.5,293.1 L360.4,296.7 L356.2,300.0 L351.8,302.9 L347.2,305.7 L342.4,308.1 L337.5,310.3 L332.5,312.1
		L327.3,313.6 L322.1,314.7 L316.8,315.6 L311.5,316.1 L306.1,316.2 L300.8,316.1 L295.4,315.6 L290.2,314.7
		L285.0,313.6 L279.8,312.1 L274.8,310.2 L269.9,308.1 L265.1,305.7 L260.5,303.0 L256.1,300.0 L251.9,296.7
		L247.8,293.1 L244.0,289.3 L240.5,285.3 L237.3,281.1 L234.2,276.7 L231.5,272.1 L229.1,267.3 L226.9,262.4
		L225.1,257.3 L223.7,252.3 L222.5,247.0 L221.6,241.7 L221.1,236.4 L221.0,231.0 L221.1,225.7 L221.6,220.4
		L222.5,215.1 L223.6,209.9 L225.1,204.7 L227.0,199.7 L229.1,194.7 L231.5,190.0 L234.2,185.4 L237.2,181.0
		L240.5,176.7 L244.1,172.7 L247.9,168.9 L251.8,165.4 L256.1,162.1 L260.5,159.1 L265.1,156.4 L269.9,154.0
		L274.8,151.8 L279.8,150.0 L285.0,148.6 L290.2,147.4 L295.5,146.5 L300.8,146.0 L306.2,145.9 L311.5,146.0
		L316.8,146.5 L322.1,147.4 L327.3,148.5 L332.5,150.0 L337.5,151.9 L342.4,154.0 L347.2,156.4 L351.8,159.1
		L356.2,162.1 L360.5,165.4 L364.5,169.0 L368.2,172.7 L371.8,176.7 L375.1,181.0 L378.1,185.4 L380.8,190.0
		L383.2,194.7 L385.3,199.7 L387.2,204.7 L388.7,209.9 L389.8,215.1 L390.7,220.4 L391.2,225.7 L391.3,231.0
		L391.2,236.4 L390.7,241.7 L389.8,247.0 L388.6,252.3 L387.2,257.3 L385.4,262.4 L383.2,267.3 L380.8,272.1
		L378.1,276.7 L375.0,281.1 L371.8,285.3 L368.3,289.3 L364.5,293.1 L360.4,296.7 L356.2,300.0 L351.8,303.0
		L347.2,305.7 L342.4,308.1 L337.5,310.2 L332.5,312.1 L327.3,313.6 L322.1,314.7 L316.9,315.6 L311.5,316.1
		L306.2,316.2 L300.8,316.1 L295.5,315.6 L290.2,314.7 L285.0,313.6 L279.9,312.1 L274.8,310.3 L269.9,308.1
		L265.1,305.7 L260.5,303.0 L256.1,300.0 L251.9,296.7 L247.8,293.1 L244.1,289.4 L240.5,285.3 L237.2,281.1
		L234.2,276.7 L231.5,272.1 L229.1,267.3 L226.9,262.4 L225.1,257.4 L223.6,252.2 L222.5,247.0 L221.6,241.7
		L221.1,236.4 L221.0,231.0 L221.1,225.7 L221.6,220.3 L222.5,215.1 L223.6,209.9 L225.1,204.7 L227.0,199.7
		L229.1,194.8 L231.5,190.0 L234.2,185.4 L237.2,181.0 L240.5,176.8 L244.1,172.7 L247.9,168.9 L251.9,165.4
		L256.1,162.2 L260.5,159.1 L265.1,156.4 L269.9,154.0 L274.8,151.8 L279.9,150.0 L284.9,148.6 L290.2,147.4
		L295.5,146.5 L300.8,146.0 L306.2,145.9 L311.5,146.0 L316.8,146.5 L322.1,147.4 L327.3,148.5 L332.5,150.0
		L337.5,151.9 L342.5,154.0 L347.2,156.4 L351.8,159.1 L356.2,162.1 L360.5,165.4 L364.5,169.0 L368.3,172.8
		L371.8,176.7 L375.1,181.0 L378.1,185.4 L380.8,190.0 L383.2,194.8 L385.4,199.7 L387.2,204.7 L388.7,209.9
		L389.8,215.1 L390.7,220.4 L391.2,225.7 L391.3,231.1 L391.2,236.4 L390.7,241.7 L389.8,247.0 L388.7,252.2
		L387.2,257.4 L385.4,262.4 L383.2,267.3 L380.8,272.1 L378.1,276.7 L375.1,281.1 L371.8,285.4 L368.3,289.3
		L364.5,293.1 L360.5,296.7 L356.2,300.0 L351.8,303.0 L347.2,305.7 L342.5,308.1 L337.5,310.2 L332.5,312.1
		L327.3,313.6 L322.1,314.7 L316.8,315.6 L311.5,316.1 L306.2,316.2 L300.8,316.1 L295.5,315.6 L290.2,314.7
		L284.9,313.5 L279.9,312.1 L274.8,310.3 L269.9,308.1 L265.1,305.7 L260.5,303.0 L256.1,299.9 L251.9,296.7
		L247.9,293.2 L244.1,289.4 L240.5,285.3 L237.2,281.1 L234.2,276.7 L231.5,272.1 L229.1,267.3 L227.0,262.4
		L225.1,257.4 L223.6,252.2 L222.5,247.0 L221.6,241.8 L221.1,236.4 L221.0,231.1 L221.1,225.7 L221.6,220.4
		L222.5,215.1 L223.6,209.9 L225.1,204.7 L226.9,199.7 L229.1,194.8 L231.5,190.0 L234.2,185.4 L237.2,181.0
		L240.5,176.8 L244.1,172.7 L247.8,169.0 L251.9,165.4 L256.1,162.1 L260.5,159.1 L265.1,156.4 L269.9,154.0
		L274.8,151.8 L279.8,150.0 L285.0,148.5 L290.2,147.4 L295.5,146.5 L300.8,146.0 L306.2,145.9 L311.5,146.0
		L316.9,146.5 L322.1,147.4 L327.3,148.5 L332.5,150.0 L337.5,151.9 L342.4,154.0 L347.2,156.4 L351.8,159.1
		L356.2,162.1 L360.4,165.4 L364.5,169.0 L368.3,172.8 L371.8,176.8 L375.0,181.0 L378.1,185.4 L380.8,190.0
		L383.2,194.8 L385.4,199.7 L387.2,204.8 L388.6,209.8 L389.8,215.1 L390.7,220.4 L391.2,225.7 L391.3,231.1
		L391.2,236.4 L390.7,241.7 L389.8,247.0 L388.7,252.2 L387.2,257.4 L385.3,262.4 L383.2,267.4 L380.8,272.1
		L378.1,276.7 L375.1,281.1 L371.8,285.4 L368.2,289.4 L364.4,293.2 L360.5,296.7 L356.2,300.0 L351.8,303.0
		L347.2,305.7 L342.4,308.1 L337.5,310.2 L332.5,312.1 L327.3,313.6 L322.1,314.7 L316.8,315.6 L311.5,316.1
		L306.2,316.2 L300.8,316.1 L295.5,315.6 L290.2,314.7 L285.0,313.5 L279.8,312.1 L274.8,310.3 L269.9,308.1
		L265.1,305.7 L260.5,303.0 L256.1,300.0 L251.8,296.7 L247.9,293.2 L244.1,289.4 L240.5,285.4 L237.2,281.1
		L234.2,276.7 L231.5,272.1 L229.1,267.4 L227.0,262.4 L225.1,257.4 L223.6,252.2 L222.5,247.0 L221.6,241.7
		L221.1,236.4 L221.0,231.1 L221.1,225.7 L221.6,220.4 L222.5,215.1 L223.7,209.8 L225.1,204.8 L226.9,199.7
		L229.1,194.8 L231.5,190.0 L234.2,185.4 L237.3,181.0 L240.5,176.8 L244.0,172.8 L247.8,169.0 L251.9,165.4
		L256.1,162.1 L260.5,159.1 L265.1,156.4 L269.9,154.0 L274.8,151.9 L279.8,150.0 L285.0,148.5 L290.2,147.4
		L295.4,146.5 L300.8,146.0 L306.1,145.9 L311.5,146.0 L316.8,146.5 L322.1,147.4 L327.3,148.5 L332.5,150.0
		L337.5,151.8 L342.4,154.0 L347.2,156.4 L351.8,159.2 L356.2,162.1 L360.4,165.4 L364.5,169.0 L368.2,172.7
		L371.8,176.8 L375.1,181.0 L378.1,185.4 L380.8,190.0 L383.2,194.8 L385.4,199.7 L387.2,204.8 L388.7,209.9
		L389.8,215.1 L390.7,220.4 L391.2,225.7 L391.3,231.1 L391.2,236.4 L390.7,241.8 L389.8,247.0 L388.7,252.2
		L387.2,257.4 L385.3,262.4 L383.2,267.3 L380.8,272.1 L378.1,276.7 L375.1,281.1 L371.8,285.3 L368.2,289.4
		L364.4,293.2 L360.4,296.7 L356.2,299.9 L351.8,303.0 L347.2,305.7 L342.4,308.1 L337.5,310.3 L332.4,312.1
		L327.4,313.5 L322.1,314.7 L316.8,315.6 L311.5,316.1 L306.1,316.2 L300.8,316.1 L295.5,315.6 L290.2,314.7
		L285.0,313.6 L279.8,312.1 L274.8,310.2 L269.9,308.1 L265.1,305.7 L260.5,303.0 L256.1,300.0 L251.8,296.7
		L247.8,293.1 L244.1,289.4 L240.5,285.4 L237.2,281.1 L234.2,276.7 L231.5,272.1 L229.1,267.3 L227.0,262.4
		L225.1,257.4 L223.6,252.2 L222.5,247.0 L221.6,241.7 L221.1,236.4 L221.0,231.1 L221.1,225.7 L221.6,220.4
		L222.5,215.1 L223.7,209.8 L225.1,204.7 L226.9,199.7 L229.1,194.8 L231.5,190.0 L234.2,185.4 L237.2,181.0
		L240.5,176.7 L244.0,172.8 L247.8,169.0 L251.8,165.4 L256.1,162.1 L260.5,159.1 L265.1,156.4 L269.8,154.0
		L274.8,151.9 L279.8,150.0 L285.0,148.5 L290.2,147.4 L295.5,146.5 L300.8,146.0 L306.1,145.9 L311.5,146.0
		L316.8,146.5 L322.1,147.4 L327.4,148.6 L332.4,150.0 L337.5,151.8 L342.4,154.0 L347.2,156.4 L351.8,159.1
		L356.2,162.2 L360.4,165.4 L364.4,168.9 L368.2,172.7 L371.8,176.8 L375.1,181.0 L378.1,185.4 L380.8,190.0
		L383.2,194.8 L385.3,199.7 L387.2,204.7 L388.7,209.9 L389.8,215.1 L390.7,220.3 L391.2,225.7 L391.3,231.0
		L391.2,236.4 L390.7,241.7 L389.8,247.0 L388.7,252.2 L387.2,257.4 L385.3,262.4 L383.2,267.3 L380.8,272.1
		L378.0,276.7 L375.1,281.1 L371.8,285.3 L368.2,289.4 L364.5,293.2 L360.4,296.7 L356.2,300.0 L351.8,303.0
		L347.2,305.7 L342.4,308.1 L337.5,310.3 L332.4,312.1 L327.3,313.6 L322.1,314.7 L316.8,315.6 L311.5,316.1
		L306.1,316.2 L300.8,316.1 L295.4,315.6 L290.2,314.7 L285.0,313.6 L279.8,312.1 L274.8,310.2 L269.9,308.1
		L265.1,305.7 L260.5,303.0 L256.1,300.0 L251.9,296.7 L247.8,293.1 L244.0,289.3 L240.5,285.3 L237.3,281.1
		L234.2,276.7 L231.5,272.1 L229.1,267.3 L226.9,262.4 L225.2,257.4 L223.7,252.3 L222.5,247.0 L221.6,241.7
		L221.1,236.4 L221.0,231.0 L221.1,225.7 L221.6,220.4 L222.5,215.1 L223.6,209.9 L225.1,204.7 L227.0,199.7
		L229.1,194.8 L231.5,190.0 L234.2,185.4 L237.2,181.0 L240.5,176.7 L244.1,172.7 L247.8,169.0 L251.8,165.4
		L256.1,162.1 L260.5,159.1 L265.1,156.4 L269.9,154.0 L274.8,151.9 L279.8,150.0 L285.0,148.5 L290.2,147.4
		L295.5,146.5 L300.8,146.0 L306.1,145.9 L311.5,146.0 L316.8,146.5 L322.1,147.4 L327.4,148.6 L332.5,150.0
		L337.5,151.8 L342.4,154.0 L347.2,156.4 L351.8,159.1 L356.2,162.1 L360.5,165.4 L364.4,168.9 L368.2,172.7
		L371.8,176.7 L375.1,181.0 L378.1,185.4 L380.8,190.0 L383.2,194.7 L385.3,199.7 L387.2,204.7 L388.7,209.9
		L389.8,215.1 L390.7,220.4 L391.2,225.7 L391.3,231.0 L391.2,236.4 L390.7,241.7 L389.8,247.0 L388.6,252.3
		L387.2,257.3 L385.4,262.4 L383.2,267.3 L380.8,272.1 L378.1,276.7 L375.0,281.1 L371.8,285.3 L368.3,289.3
		L364.5,293.1 L360.4,296.7 L356.2,300.0 L351.8,303.0 L347.2,305.7 L342.4,308.1 L337.5,310.2 L332.5,312.1
		L327.3,313.6 L322.1,314.7 L316.9,315.6 L311.5,316.1 L306.2,316.2 L300.8,316.1 L295.4,315.6 L290.2,314.7
		L285.0,313.6 L279.8,312.1 L274.8,310.2 L269.9,308.1 L265.1,305.7 L260.5,302.9 L256.1,300.0 L251.9,296.7
		L247.8,293.1 L244.0,289.4 L240.5,285.3 L237.2,281.1 L234.2,276.7 L231.5,272.1 L229.1,267.3 L226.9,262.4
		L225.1,257.3 L223.6,252.2 L222.5,247.0 L221.6,241.7 L221.1,236.4 L221.0,231.0 L221.1,225.7 L221.6,220.3
		L222.5,215.1 L223.6,209.9 L225.1,204.7 L227.0,199.7 L229.1,194.8 L231.5,190.1 L234.2,185.4 L237.2,181.0
		L240.5,176.8 L244.1,172.7 L247.9,168.9 L251.8,165.4 L256.1,162.2 L260.5,159.1 L265.1,156.4 L269.9,154.0
		L274.8,151.8 L279.8,150.1 L284.9,148.6 L290.2,147.4 L295.5,146.5 L300.8,146.0 L306.2,145.9 L311.5,146.0
		L316.8,146.5 L322.1,147.4 L327.3,148.5 L332.5,150.0 L337.5,151.9 L342.4,154.0 L347.2,156.4 L351.8,159.1
		L356.2,162.1 L360.5,165.4 L364.5,169.0 L368.2,172.7 L371.8,176.7 L375.1,181.0 L378.1,185.4 L380.8,190.0
		L383.2,194.8 L385.3,199.7 L387.2,204.7 L388.7,209.9 L389.8,215.1 L390.7,220.4 L391.2,225.7 L391.3,231.0
		L391.2,236.4 L390.7,241.7 L389.8,247.0 L388.6,252.3 L387.2,257.4 L385.4,262.4 L383.2,267.3 L380.8,272.1
		L378.1,276.7 L375.0,281.1 L371.8,285.4 L368.3,289.3 L364.5,293.1 L360.5,296.7 L356.2,300.0 L351.8,303.0
		L347.2,305.7 L342.4,308.1 L337.5,310.2 L332.5,312.1 L327.3,313.6 L322.1,314.7 L316.8,315.6 L311.5,316.1
		L306.2,316.2 L300.8,316.1 L295.5,315.6 L290.2,314.7 L284.9,313.5 L279.9,312.1 L274.8,310.3 L269.9,308.1
		L265.1,305.7 L260.5,303.0 L256.1,299.9 L251.9,296.7 L247.9,293.2 L244.1,289.4 L240.5,285.3 L237.2,281.1
		L234.2,276.7 L231.5,272.1 L229.1,267.3 L227.0,262.4 L225.1,257.4 L223.6,252.2 L222.5,247.0 L221.6,241.8
		L221.1,236.4 L221.0,231.1 L221.1,225.7 L221.6,220.3 L222.5,215.0 L223.6,209.9 L225.1,204.7 L227.0,199.7
		L229.1,194.8 L231.5,190.0 L234.3,185.4 L237.2,181.0 L240.5,176.8 L244.1,172.7 L247.9,168.9 L251.9,165.4
		L256.0,162.2 L260.5,159.1 L265.1,156.4 L269.9,154.0 L274.8,151.8 L279.9,150.0 L284.9,148.6 L290.2,147.4
		L295.5,146.5 L300.8,146.0 L306.2,145.9 L311.5,146.0 L316.8,146.5 L322.1,147.4 L327.3,148.5 L332.5,150.0
		L337.5,151.9 L342.4,154.0 L347.2,156.4 L351.8,159.1 L356.2,162.1 L360.4,165.4 L364.5,169.0 L368.3,172.8
		L371.8,176.7 L375.0,181.0 L378.1,185.4 L380.8,190.0 L383.2,194.8 L385.4,199.7 L387.1,204.7 L388.6,209.8
		L389.8,215.1 L390.7,220.4 L391.2,225.7 L391.3,231.1 L391.2,236.4 L390.7,241.7 L389.8,247.0 L388.7,252.2
		L387.2,257.4 L385.3,262.4 L383.2,267.3 L380.8,272.1 L378.1,276.7 L375.1,281.1 L371.8,285.4 L368.2,289.4
		L364.5,293.1 L360.5,296.7 L356.2,300.0 L351.8,303.0 L347.2,305.7 L342.4,308.1 L337.5,310.2 L332.5,312.1
		L327.3,313.6 L322.1,314.7 L316.8,315.6 L311.5,316.1 L306.2,316.2 L300.8,316.1 L295.5,315.6 L290.2,314.7
		L284.9,313.5 L279.8,312.0 L274.8,310.3 L269.9,308.1 L265.1,305.7 L260.5,303.0 L256.1,299.9 L251.8,296.7
		L247.9,293.2 L244.1,289.4 L240.5,285.3 L237.2,281.1 L234.2,276.7 L231.5,272.1 L229.1,267.3 L227.0,262.4
		L225.1,257.4 L223.6,252.2 L222.5,247.0 L221.6,241.7 L221.1,236.4 L221.0,231.1 L221.1,225.7 L221.6,220.4
		L222.5,215.1 L223.7,209.8 L225.1,204.8 L226.9,199.7 L229.1,194.8 L231.5,190.0 L234.2,185.4 L237.3,180.9
		L240.5,176.8 L244.0,172.8 L247.8,169.0 L251.9,165.4 L256.1,162.1 L260.5,159.1 L265.1,156.4 L269.9,154.0
		L274.8,151.9 L279.8,150.0 L285.0,148.5 L290.2,147.4 L295.4,146.5 L300.8,146.0 L306.1,145.9 L311.5,146.0
		L316.9,146.5 L322.1,147.4 L327.3,148.5 L332.5,150.0 L337.5,151.9 L342.4,154.0 L347.2,156.4 L351.8,159.1
		L356.2,162.1 L360.4,165.4 L364.5,169.0 L368.3,172.8 L371.8,176.8 L375.0,180.9 L378.1,185.4 L380.8,190.0
		L383.2,194.8 L385.4,199.7 L387.2,204.8 L388.6,209.8 L389.8,215.1 L390.7,220.4 L391.2,225.7 L391.3,231.1
		L391.2,236.4 L390.7,241.7 L389.8,247.0 L388.7,252.2 L387.2,257.4 L385.3,262.4 L383.2,267.3 L380.8,272.1
		L378.1,276.7 L375.1,281.1 L371.8,285.3 L368.2,289.4 L364.4,293.2 L360.5,296.7 L356.2,299.9 L351.8,303.0
		L347.2,305.7 L342.4,308.1 L337.5,310.3 L332.5,312.0 L327.4,313.5 L322.1,314.7 L316.8,315.6 L311.5,316.1
		L306.1,316.2 L300.8,316.1 L295.5,315.6 L290.2,314.7 L285.0,313.6 L279.8,312.1 L274.8,310.2 L269.9,308.1
		L265.1,305.7 L260.5,303.0 L256.1,300.0 L251.8,296.7 L247.8,293.1 L244.1,289.4 L240.5,285.4 L237.2,281.1
		L234.2,276.7 L231.5,272.1 L229.1,267.3 L227.0,262.4 L225.1,257.4 L223.6,252.2 L222.5,247.0 L221.6,241.7
		L221.1,236.4 L221.0,231.1 L221.1,225.7 L221.6,220.4 L222.5,215.1 L223.7,209.8 L225.2,204.7 L226.9,199.7
		L229.1,194.8 L231.5,190.0 L234.2,185.4 L237.3,181.0 L240.5,176.7 L244.0,172.8 L247.8,169.0 L251.9,165.4
		L256.1,162.1 L260.5,159.1 L265.1,156.4 L269.9,154.0 L274.8,151.9 L279.8,150.0 L285.0,148.5 L290.2,147.4
		L295.5,146.5 L300.8,146.0 L306.1,145.9 L311.5,146.0 L316.8,146.5 L322.1,147.4 L327.4,148.6 L332.4,150.0
		L337.5,151.8 L342.4,154.0 L347.2,156.4 L351.8,159.1 L356.3,162.2 L360.4,165.4 L364.4,168.9 L368.2,172.7
		L371.8,176.8 L375.1,181.0 L378.0,185.4 L380.8,190.0 L383.2,194.8 L385.3,199.7 L387.2,204.7 L388.7,209.9
		L389.8,215.0 L390.7,220.3 L391.2,225.7 L391.3,231.1 L391.2,236.4 L390.7,241.8 L389.8,247.0 L388.7,252.2
		L387.2,257.4 L385.3,262.4 L383.2,267.3 L380.8,272.1 L378.1,276.7 L375.1,281.1 L371.8,285.3 L368.2,289.4
		L364.4,293.2 L360.4,296.7 L356.2,299.9 L351.8,303.0 L347.2,305.7 L342.4,308.1 L337.5,310.3 L332.4,312.1
		L327.4,313.5 L322.1,314.7 L316.8,315.6 L311.5,316.1 L306.1,316.2 L300.8,316.1 L295.5,315.6 L290.2,314.7
		L285.0,313.6 L279.8,312.1 L274.8,310.2 L269.9,308.1 L265.1,305.7 L260.5,303.0 L256.1,300.0 L251.8,296.7
		L247.8,293.1 L244.0,289.3 L240.5,285.4 L237.3,281.1 L234.2,276.7 L231.5,272.1 L229.1,267.3 L226.9,262.4
		L225.2,257.4 L223.7,252.3 L222.5,247.0 L221.6,241.7 L221.1,236.4 L221.0,231.0 L221.1,225.7 L221.6,220.4
		L222.5,215.1 L223.6,209.9 L225.1,204.7 L227.0,199.7 L229.1,194.8 L231.5,190.0 L234.2,185.4 L237.2,181.0
		L240.5,176.7 L244.1,172.7 L247.8,169.0 L251.8,165.4 L256.1,162.1 L260.5,159.1 L265.1,156.4 L269.9,154.0
		L274.8,151.9 L279.8,150.0 L285.0,148.5 L290.2,147.4 L295.5,146.5 L300.8,146.0 L306.1,145.9 L311.5,146.0
		L316.8,146.5 L322.1,147.4 L327.4,148.6 L332.5,150.1 L337.5,151.8 L342.4,154.0 L347.2,156.4 L351.8,159.1
		L356.2,162.2 L360.5,165.4 L364.4,168.9 L368.2,172.7 L371.8,176.8 L375.1,181.0 L378.1,185.4 L380.8,190.1
		L383.2,194.8 L385.3,199.7 L387.2,204.7 L388.7,209.9 L389.8,215.1 L390.7,220.4 L391.2,225.7 L391.3,231.0
		L391.2,236.4 L390.7,241.7 L389.8,247.0 L388.7,252.2 L387.2,257.3 L385.4,262.4 L383.2,267.3 L380.8,272.1
		L378.1,276.7 L375.1,281.1 L371.8,285.3 L368.3,289.4 L364.5,293.1 L360.4,296.7 L356.2,300.0 L351.8,302.9
		L347.2,305.7 L342.4,308.1 L337.5,310.2 L332.5,312.1 L327.3,313.6 L322.2,314.7 L316.9,315.6 L311.5,316.1
		L306.1,316.2 L300.8,316.1 L295.4,315.6 L290.2,314.7 L285.0,313.6 L279.8,312.1 L274.8,310.2 L269.9,308.1
		L265.1,305.7 L260.5,303.0 L256.1,300.0 L251.9,296.7 L247.8,293.1 L244.0,289.3 L240.5,285.3 L237.3,281.1
		L234.2,276.7 L231.5,272.1 L229.1,267.3 L226.9,262.4 L225.1,257.3 L223.7,252.3 L222.5,247.0 L221.6,241.7
		L221.1,236.4 L221.0,231.0 L221.1,225.7 L221.6,220.4 L222.5,215.1 L223.6,209.9 L225.1,204.7 L227.0,199.7
		L229.1,194.8 L231.5,190.0 L234.2,185.4 L237.2,181.0 L240.5,176.7 L244.1,172.7 L247.9,168.9 L251.8,165.4
		L256.1,162.1 L260.5,159.1 L265.1,156.4 L269.9,154.0 L274.8,151.8 L279.8,150.0 L284.9,148.6 L290.2,147.4
		L295.5,146.5 L300.8,146.0 L306.2,145.9 L311.5,146.0 L316.8,146.5 L322.1,147.4 L327.3,148.5 L332.5,150.0
		L337.5,151.9 L342.4,154.0 L347.2,156.4 L351.8,159.1 L356.2,162.1 L360.5,165.4 L364.5,169.0 L368.2,172.7
		L371.8,176.7 L375.1,181.0 L378.1,185.4 L380.8,190.0 L383.2,194.8 L385.3,199.7 L387.2,204.7 L388.7,209.9
		L389.8,215.1 L390.7,220.4 L391.2,225.7 L391.3,231.0 L391.2,236.4 L390.7,241.7 L389.8,247.0 L388.6,252.3
		L387.1,257.4 L385.4,262.4 L383.2,267.3 L380.8,272.1 L378.1,276.7 L375.0,281.1 L371.8,285.4 L368.3,289.3
		L364.5,293.1 L360.4,296.7 L356.2,300.0 L351.8,303.0 L347.2,305.7 L342.4,308.1 L337.5,310.2 L332.5,312.1
		L327.3,313.6 L322.1,314.7 L316.9,315.6 L311.5,316.1 L306.2,316.2 L300.8,316.1 L295.5,315.6 L290.2,314.7
		L285.0,313.6 L279.9,312.1 L274.8,310.3 L269.9,308.1 L265.1,305.7 L260.5,303.0 L256.1,300.0 L251.9,296.7
		L247.8,293.2 L244.1,289.4 L240.5,285.3 L237.2,281.1 L234.3,276.7 L231.5,272.1 L229.1,267.3 L227.0,262.4
		L225.1,257.4 L223.6,252.2 L222.5,247.0 L221.6,241.7 L221.1,236.4 L221.0,231.0 L221.1,225.7 L221.6,220.3
		L222.5,215.1 L223.6,209.9 L225.1,204.7 L227.0,199.7 L229.1,194.8 L231.5,190.0 L234.2,185.4 L237.2,181.0
		L240.5,176.8 L244.1,172.7 L247.9,168.9 L251.9,165.4 L256.1,162.2 L260.5,159.1 L265.1,156.4 L269.9,154.0
		L274.8,151.8 L279.9,150.0 L284.9,148.6 L290.2,147.4 L295.5,146.5 L300.8,146.0 L306.2,145.9 L311.5,146.0
		L316.8,146.5 L322.1,147.4 L327.3,148.5 L332.5,150.0 L337.5,151.9 L342.5,154.0 L347.2,156.4 L351.8,159.1
		L356.2,162.1 L360.5,165.4 L364.5,169.0 L368.3,172.8 L371.8,176.7 L375.1,181.0 L378.1,185.4 L380.8,190.0
		L383.2,194.8 L385.4,199.7 L387.2,204.7 L388.6,209.8 L389.8,215.1 L390.7,220.4 L391.2,225.7 L391.3,231.1
		L391.2,236.4 L390.7,241.7 L389.8,247.0 L388.7,252.2 L387.2,257.4 L385.3,262.4 L383.2,267.3 L380.8,272.1
		L378.1,276.7 L375.1,281.1 L371.8,285.4 L368.2,289.4 L364.5,293.1 L360.5,296.7 L356.2,300.0 L351.8,303.0
		L347.2,305.7 L342.4,308.1 L337.5,310.2 L332.5,312.1 L327.3,313.6 L322.1,314.7 L316.8,315.6 L311.5,316.1
		L306.2,316.2 L300.8,316.1 L295.5,315.6 L290.2,314.7 L284.9,313.5 L279.9,312.1 L274.8,310.3 L269.9,308.1
		L265.1,305.7 L260.5,303.0 L256.1,299.9 L251.9,296.7 L247.9,293.2 L244.1,289.4 L240.5,285.3 L237.2,281.1
		L234.2,276.7 L231.5,272.1 L229.1,267.3 L227.0,262.4 L225.1,257.4 L223.6,252.2 L222.5,247.0 L221.6,241.8
		L221.1,236.4 L221.0,231.1 L221.1,225.7 L221.6,220.4 L222.5,215.1 L223.6,209.9 L225.1,204.8 L226.9,199.7
		L229.1,194.8 L231.5,190.0 L234.2,185.4 L237.2,181.0 L240.5,176.8 L244.0,172.7 L247.8,169.0 L251.9,165.4
		L256.1,162.1 L260.5,159.2 L265.1,156.4 L269.9,154.0 L274.8,151.8 L279.8,150.0 L285.0,148.5 L290.2,147.4
		L295.5,146.5 L300.8,146.0 L306.2,145.9 L311.5,146.0 L316.9,146.5 L322.1,147.4 L327.3,148.5 L332.5,150.0
		L337.5,151.9 L342.4,154.0 L347.2,156.4 L351.8,159.1 L356.2,162.1 L360.4,165.4 L364.5,169.0 L368.3,172.8
		L371.8,176.8 L375.0,181.0 L378.1,185.4 L380.8,190.0 L383.2,194.8 L385.4,199.7 L387.2,204.8 L388.6,209.8
		L389.8,215.1 L390.7,220.4 L391.2,225.7 L391.3,231.1 L391.2,236.4 L390.7,241.7 L389.8,247.0 L388.7,252.2
		L387.2,257.4 L385.3,262.4 L383.2,267.4 L380.8,272.1 L378.1,276.7 L375.1,281.1 L371.8,285.4 L368.2,289.4
		L364.4,293.2 L360.5,296.7 L356.2,300.0 L351.8,303.0 L347.2,305.7 L342.4,308.1 L337.5,310.3 L332.5,312.1
		L327.3,313.5 L322.1,314.7 L316.8,315.6 L311.5,316.1 L306.1,316.2 L300.8,316.1 L295.5,315.6 L290.2,314.7
		L285.0,313.6 L279.8,312.1 L274.8,310.2 L269.9,308.1 L265.1,305.7 L260.5,303.0 L256.1,300.0 L251.8,296.7
		L247.8,293.1 L244.1,289.4 L240.5,285.4 L237.2,281.1 L234.2,276.7 L231.5,272.1 L229.1,267.4 L227.0,262.4
		L225.1,257.4 L223.6,252.2 L222.5,247.0 L221.6,241.7 L221.1,236.4 L221.0,231.1 L221.1,225.7 L221.6,220.4
		L222.5,215.1 L223.7,209.8 L225.1,204.8 L226.9,199.7 L229.1,194.8 L231.5,190.0 L234.2,185.4 L237.3,181.0
		L240.5,176.8 L244.0,172.8 L247.8,169.0 L251.9,165.4 L256.1,162.1 L260.5,159.1 L265.1,156.4 L269.9,154.0
		L274.8,151.9 L279.8,150.0 L285.0,148.5 L290.2,147.4 L295.4,146.5 L300.8,146.0 L306.1,145.9 L311.5,146.0
		L316.8,146.5 L322.1,147.4 L327.3,148.5 L332.4,150.0 L337.5,151.8 L342.4,154.0 L347.2,156.4 L351.8,159.1
		L356.2,162.1 L360.4,165.4 L364.5,169.0 L368.2,172.7 L371.8,176.8 L375.1,181.0 L378.1,185.4 L380.8,190.0
		L383.2,194.8 L385.4,199.7 L387.2,204.7 L388.7,209.9 L389.8,215.1 L390.7,220.4 L391.2,225.7 L391.3,231.1
		L391.2,236.4 L390.7,241.8 L389.8,247.0 L388.7,252.2 L387.2,257.4 L385.3,262.4 L383.2,267.3 L380.8,272.1
		L378.1,276.7 L375.1,281.1 L371.8,285.3 L368.2,289.4 L364.4,293.2 L360.4,296.7 L356.2,299.9 L351.8,303.0
		L347.2,305.7 L342.4,308.1 L337.5,310.3 L332.4,312.1 L327.4,313.5 L322.1,314.7 L316.8,315.6 L311.5,316.1
		L306.1,316.2 L300.8,316.1 L295.5,315.6 L290.2,314.7 L285.0,313.6 L279.8,312.1 L274.8,310.2 L269.8,308.1
		L265.1,305.7 L260.5,303.0 L256.1,300.0 L251.8,296.7 L247.8,293.1 L244.0,289.3 L240.5,285.4 L237.2,281.1
		L234.2,276.7 L231.5,272.1 L229.1,267.3 L226.9,262.4 L225.1,257.4 L223.6,252.2 L222.5,247.0 L221.6,241.7
		L221.1,236.4 L221.0,231.0 L221.1,225.7 L221.6,220.4 L222.5,215.1 L223.6,209.9 L225.1,204.7 L226.9,199.7
		L229.1,194.8 L231.5,190.0 L234.2,185.4 L237.2,181.0 L240.5,176.7 L244.0,172.8 L247.8,169.0 L251.8,165.4
		L256.1,162.1 L260.5,159.1 L265.1,156.4 L269.8,154.0 L274.8,151.9 L279.8,150.0 L285.0,148.5 L290.2,147.4
		L295.5,146.5 L300.8,146.0 L306.1,145.9 L311.5,146.0 L316.8,146.5 L322.1,147.4 L327.4,148.6 L332.4,150.0
		L337.5,151.8 L342.4,154.0 L347.2,156.4 L351.8,159.1 L356.2,162.2 L360.4,165.4 L364.4,168.9 L368.2,172.7
		L371.8,176.8 L375.1,181.0 L378.1,185.4 L380.8,190.0 L383.2,194.8 L385.3,199.7 L387.2,204.7 L388.7,209.9
		L389.8,215.1 L390.7,220.3 L391.2,225.7 L391.3,231.0 L391.2,236.4 L390.7,241.7 L389.8,247.0 L388.7,252.2
		L387.2,257.4 L385.4,262.4 L383.2,267.3 L380.8,272.1 L378.1,276.7 L375.1,281.1 L371.8,285.3 L368.2,289.4
		L364.5,293.1 L360.4,296.7 L356.2,300.0 L351.8,303.0 L347.2,305.7 L342.4,308.1 L337.5,310.3 L332.5,312.1
		L327.3,313.6 L322.1,314.7 L316.8,315.6 L311.5,316.1 L306.1,316.2 L300.8,316.1 L295.4,315.6 L290.2,314.7
		L285.0,313.6 L279.8,312.1 L274.8,310.2 L269.9,308.1 L265.1,305.7 L260.5,303.0 L256.1,300.0 L251.9,296.7
		L247.8,293.1 L244.0,289.3 L240.5,285.3 L237.3,281.1 L234.2,276.7 L231.5,272.1 L229.1,267.3 L226.9,262.4
		L225.1,257.3 L223.7,252.3 L222.5,247.0 L221.6,241.7 L221.1,236.4 L221.0,231.0 L221.1,225.7 L221.6,220.4
		L222.5,215.1 L223.6,209.9 L225.1,204.7 L227.0,199.7 L229.1,194.7 L231.5,190.0 L234.2,185.4 L237.2,181.0
		L240.5,176.7 L244.1,172.7 L247.9,168.9 L251.8,165.4 L256.1,162.1 L260.5,159.1 L265.1,156.4 L269.9,154.0
		L274.8,151.9 L279.8,150.0 L285.0,148.5 L290.2,147.4 L295.5,146.5 L300.8,146.0 L306.1,145.9 L311.5,146.0
		L316.8,146.5 L322.1,147.4 L327.3,148.6 L332.5,150.0 L337.5,151.8 L342.4,154.0 L347.2,156.4 L351.8,159.1
		L356.2,162.1 L360.5,165.4 L364.4,168.9 L368.2,172.7 L371.8,176.7 L375.1,181.0 L378.1,185.4 L380.8,190.0
		L383.2,194.7 L385.3,199.7 L387.2,204.7 L388.7,209.9 L389.8,215.1 L390.7,220.4 L391.2,225.7 L391.3,231.0
		L391.2,236.4 L390.7,241.7 L389.8,247.0 L388.6,252.3 L387.2,257.3 L385.4,262.4 L383.2,267.3 L380.8,272.1
		L378.1,276.7 L375.0,281.1 L371.8,285.3 L368.3,289.3 L364.5,293.1 L360.4,296.7 L356.2,300.0 L351.8,303.0
		L347.2,305.7 L342.4,308.1 L337.5,310.2 L332.5,312.1 L327.3,313.6 L322.1,314.7 L316.9,315.6 L311.5,316.1
		L306.2,316.2 L300.8,316.1 L295.5,315.6 L290.2,314.7 L285.0,313.6 L279.8,312.1 L274.8,310.3 L269.9,308.1
		L265.1,305.7 L260.5,302.9 L256.1,300.0 L251.9,296.7 L247.8,293.1 L244.1,289.4 L240.5,285.3 L237.2,281.1
		L234.2,276.7 L231.5,272.1 L229.1,267.3 L226.9,262.4 L225.1,257.3 L223.6,252.2 L222.5,247.0 L221.6,241.7
		L221.1,236.4 L221.0,231.0 L221.1,225.7 L221.6,220.3 L222.5,215.1 L223.6,209.9 L225.1,204.7 L227.0,199.7
		L229.1,194.8 L231.5,190.0 L234.2,185.4 L237.2,181.0 L240.5,176.8 L244.1,172.7 L247.9,168.9 L251.9,165.4
		L256.1,162.2 L260.5,159.1 L265.1,156.4 L269.9,154.0 L274.8,151.8 L279.9,150.0 L284.9,148.6 L290.2,147.4
		L295.5,146.5 L300.8,146.0 L306.2,145.9 L311.5,146.0 L316.8,146.5 L322.1,147.4 L327.3,148.5 L332.5,150.0
		L337.5,151.9 L342.4,154.0 L347.2,156.4 L351.8,159.1 L356.2,162.1 L360.5,165.4 L364.5,169.0 L368.2,172.7
		L371.8,176.7 L375.1,181.0 L378.1,185.4 L380.8,190.0 L383.2,194.8 L385.3,199.7 L387.2,204.7 L388.7,209.9
		L389.8,215.1 L390.7,220.4 L391.2,225.7 L391.3,231.0 L391.2,236.4 L390.7,241.7 L389.8,247.0 L388.6,252.3
		L387.2,257.4 L385.4,262.4 L383.2,267.3 L380.8,272.1 L378.1,276.7 L375.1,281.1 L371.8,285.4 L368.3,289.3
		L364.5,293.1 L360.5,296.7 L356.2,300.0 L351.8,303.0 L347.2,305.7 L342.5,308.1 L337.5,310.2 L332.5,312.1
		L327.3,313.6 L322.1,314.7 L316.8,315.6 L311.5,316.1 L306.2,316.2 L300.8,316.1 L295.5,315.6 L290.2,314.7
		L284.9,313.5 L279.9,312.1 L274.8,310.3 L269.9,308.1 L265.1,305.7 L260.5,303.0 L256.1,299.9 L251.9,296.7
		L247.9,293.2 L244.1,289.4 L240.5,285.3 L237.2,281.1 L234.2,276.7 L231.5,272.1 L229.1,267.3 L227.0,262.4
		L225.1,257.4 L223.6,252.2 L222.5,247.0 L221.6,241.8 L221.1,236.4 L221.0,231.1 L221.1,225.7 L221.6,220.4
		L222.5,215.1 L223.6,209.9 L225.1,204.7 L227.0,199.7 L229.1,194.8 L231.5,190.0 L234.3,185.4 L237.2,181.0
		L240.5,176.8 L244.1,172.7 L247.8,168.9 L251.9,165.4 L256.1,162.1 L260.5,159.1 L265.1,156.4 L269.9,154.0
		L274.8,151.8 L279.9,150.0 L285.0,148.5 L290.2,147.4 L295.5,146.5 L300.8,146.0 L306.2,145.9 L311.5,146.0
		L316.9,146.5 L322.1,147.4 L327.3,148.5 L332.5,150.0 L337.5,151.9 L342.4,154.0 L347.2,156.4 L351.8,159.1
		L356.2,162.1 L360.4,165.4 L364.5,169.0 L368.3,172.8 L371.8,176.8 L375.0,181.0 L378.1,185.4 L380.8,190.0
		L383.2,194.8 L385.4,199.7 L387.1,204.7 L388.6,209.8 L389.8,215.1 L390.7,220.4 L391.2,225.7 L391.3,231.1
		L391.2,236.4 L390.7,241.7 L389.8,247.0 L388.7,252.2 L387.2,257.4 L385.3,262.4 L383.2,267.3 L380.8,272.1
		L378.1,276.7 L375.1,281.1 L371.8,285.4 L368.2,289.4 L364.5,293.1 L360.5,296.7 L356.2,300.0 L351.8,303.0
		L347.2,305.7 L342.4,308.1 L337.5,310.2 L332.5,312.1 L327.3,313.6 L322.1,314.7 L316.8,315.6 L311.5,316.1
		L306.2,316.2 L300.8,316.1 L295.5,315.6 L290.2,314.7 L284.9,313.5 L279.8,312.1 L274.8,310.3 L269.9,308.1
		L265.1,305.7 L260.5,303.0 L256.1,300.0 L251.8,296.7 L247.9,293.2 L244.1,289.4 L240.5,285.4 L237.2,281.1
		L234.2,276.7 L231.5,272.1 L229.1,267.4 L227.0,262.4 L225.1,257.4 L223.6,252.2 L222.5,247.0 L221.6,241.7
		L221.1,236.4 L221.0,231.1 L221.1,225.7 L221.6,220.4 L222.5,215.1 L223.7,209.8 L225.1,204.8 L226.9,199.7
		L229.1,194.8 L231.5,190.0 L234.2,185.4 L237.3,181.0 L240.5,176.8 L244.0,172.8 L247.8,169.0 L251.9,165.4
		L256.1,162.1 L260.5,159.1 L265.1,156.4 L269.9,154.0 L274.8,151.9 L279.8,150.0 L285.0,148.5 L290.2,147.4
		L295.4,146.5 L300.8,146.0 L306.1,145.9 L311.5,146.0 L316.9,146.5 L322.1,147.4 L327.3,148.5 L332.5,150.0
		L337.5,151.9 L342.4,154.0 L347.2,156.4 L351.8,159.2 L356.2,162.1 L360.4,165.4 L364.5,169.0 L368.3,172.7
		L371.8,176.8 L375.1,181.0 L378.1,185.4 L380.8,190.0 L383.2,194.8 L385.4,199.7 L387.2,204.8 L388.7,209.9
		L389.8,215.1 L390.7,220.4 L391.2,225.7 L391.3,231.1 L391.2,236.4 L390.7,241.8 L389.8,247.0 L388.7,252.2
		L387.2,257.4 L385.3,262.4 L383.2,267.3 L380.8,272.0 L378.1,276.7 L375.1,281.1 L371.8,285.3 L368.2,289.4
		L364.4,293.2 L360.5,296.7 L356.2,299.9 L351.8,303.0 L347.2,305.7 L342.4,308.1 L337.5,310.3 L332.5,312.0
		L327.4,313.5 L322.1,314.7 L316.8,315.6 L311.5,316.1 L306.1,316.2 L300.8,316.1 L295.5,315.6 L290.2,314.7
		L285.0,313.6 L279.8,312.1 L274.8,310.2 L269.9,308.1 L265.1,305.7 L260.5,303.0 L256.1,300.0 L251.8,296.7
		L247.8,293.1 L244.1,289.4 L240.5,285.4 L237.2,281.1 L234.2,276.7 L231.5,272.1 L229.1,267.3 L227.0,262.4
		L225.1,257.4 L223.6,252.2 L222.5,247.0 L221.6,241.7 L221.1,236.4 L221.0,231.1 L221.1,225.7 L221.6,220.4
		L222.5,215.1 L223.7,209.8 L225.1,204.7 L226.9,199.7 L229.1,194.8 L231.5,190.0 L234.2,185.4 L237.3,181.0
		L240.5,176.7 L244.0,172.8 L247.8,169.0 L251.8,165.4 L256.1,162.1 L260.5,159.1 L265.1,156.4 L269.9,154.0
		L274.8,151.9 L279.8,150.0 L285.0,148.5 L290.2,147.4 L295.5,146.5 L300.8,146.0 L306.1,145.9 L311.5,146.0
		L316.8,146.5 L322.1,147.4 L327.4,148.6 L332.4,150.0 L337.5,151.8 L342.4,154.0 L347.2,156.4 L351.8,159.1
		L356.2,162.2 L360.4,165.4 L364.4,168.9 L368.2,172.7 L371.8,176.8 L375.1,181.0 L378.1,185.4 L380.8,190.0
		L383.2,194.8 L385.3,199.7 L387.2,204.7 L388.7,209.9 L389.8,215.1 L390.7,220.3 L391.2,225.7 L391.3,231.0
		L391.2,236.4 L390.7,241.8 L389.8,247.1 L388.7,252.2 L387.2,257.4 L385.3,262.4 L383.2,267.3 L380.8,272.1
		L378.0,276.7 L375.1,281.1 L371.8,285.3 L368.2,289.4 L364.4,293.2 L360.4,296.7 L356.2,300.0 L351.8,303.0
		L347.2,305.7 L342.4,308.1 L337.5,310.3 L332.4,312.1 L327.4,313.5 L322.1,314.7 L316.8,315.6 L311.5,316.1
		L306.1,316.2 L300.8,316.1 L295.5,315.6 L290.2,314.7 L285.0,313.6 L279.8,312.1 L274.8,310.2 L269.9,308.1
		L265.1,305.7 L260.5,303.0 L256.1,300.0 L251.9,296.7 L247.8,293.1 L244.0,289.3 L240.5,285.4 L237.3,281.1
		L234.2,276.7 L231.5,272.1 L229.1,267.3 L226.9,262.4 L225.2,257.4 L223.7,252.3 L222.5,247.0 L221.6,241.7
		L221.1,236.4 L221.0,231.0 L221.1,225.7 L221.6,220.4 L222.5,215.1 L223.6,209.9 L225.1,204.7 L227.0,199.7
		L229.1,194.8 L231.5,190.0 L234.2,185.4 L237.2,181.0 L240.5,176.7 L244.1,172.7 L247.8,169.0 L251.8,165.4
		L256.1,162.1 L260.5,159.1 L265.1,156.4 L269.9,154.0 L274.8,151.9 L279.8,150.0 L285.0,148.5 L290.2,147.4
		L295.5,146.5 L300.8,146.0 L306.1,145.9 L311.5,146.0 L316.8,146.5 L322.1,147.4 L327.4,148.6 L332.5,150.1
		L337.5,151.8 L342.4,154.0 L347.2,156.4 L351.8,159.1 L356.2,162.2 L360.5,165.4 L364.4,168.9 L368.2,172.7
		L371.8,176.8 L375.1,181.0 L378.1,185.4 L380.8,190.0 L383.2,194.8 L385.3,199.7 L387.2,204.7 L388.7,209.9
		L389.8,215.1 L390.7,220.4 L391.2,225.7 L391.3,231.0 L391.2,236.4 L390.7,241.7 L389.8,247.0 L388.6,252.3
		L387.2,257.3 L385.4,262.4 L383.2,267.3 L380.8,272.1 L378.1,276.7 L375.0,281.2 L371.8,285.3 L368.3,289.3
		L364.5,293.1 L360.4,296.7 L356.2,300.0 L351.8,303.0 L347.2,305.7 L342.4,308.1 L337.5,310.2 L332.5,312.1
		L327.3,313.6 L322.1,314.7 L316.9,315.6 L311.5,316.1 L306.2,316.2 L300.8,316.1 L295.4,315.6 L290.1,314.7
		L285.0,313.6 L279.8,312.1 L274.8,310.2 L269.9,308.1 L265.1,305.7 L260.5,303.0 L256.1,300.0 L251.9,296.7
		L247.8,293.1 L244.0,289.3 L240.5,285.3 L237.3,281.2 L234.2,276.7 L231.5,272.1 L229.1,267.3 L226.9,262.4
		L225.1,257.3 L223.7,252.3 L222.5,247.0 L221.6,241.7 L221.1,236.4 L221.0,231.0 L221.1,225.7 L221.6,220.4
		L222.5,215.1 L223.6,209.9 L225.1,204.7 L227.0,199.7 L229.1,194.8 L231.5,190.0 L234.2,185.4 L237.2,181.0
		L240.5,176.8 L244.1,172.7 L247.9,168.9 L251.8,165.4 L256.1,162.2 L260.5,159.1 L265.1,156.4 L269.9,154.0
		L274.8,151.8 L279.8,150.1 L284.9,148.6 L290.2,147.4 L295.5,146.5 L300.8,146.0 L306.2,145.9 L311.5,146.0
		L316.8,146.5 L322.1,147.4 L327.3,148.5 L332.5,150.0 L337.5,151.9 L342.4,154.0 L347.2,156.4 L351.8,159.1
		L356.2,162.1 L360.5,165.4 L364.5,169.0 L368.2,172.7 L371.8,176.7 L375.1,181.0 L378.1,185.4 L380.8,190.0
		L383.2,194.8 L385.3,199.7 L387.2,204.7 L388.7,209.9 L389.8,215.1 L390.7,220.4 L391.2,225.7 L391.3,231.0
		L391.2,236.4 L390.7,241.7 L389.8,247.0 L388.6,252.3 L387.1,257.4 L385.4,262.4 L383.2,267.3 L380.8,272.1
		L378.1,276.7 L375.0,281.1 L371.8,285.4 L368.3,289.3 L364.5,293.1 L360.4,296.7 L356.2,300.0 L351.8,303.0
		L347.2,305.7 L342.4,308.1 L337.5,310.2 L332.5,312.1 L327.3,313.6 L322.1,314.7 L316.8,315.6 L311.5,316.1
		L306.2,316.2 L300.8,316.1 L295.5,315.6 L290.2,314.7 L284.9,313.5 L279.9,312.1 L274.8,310.3 L269.9,308.1
		L265.1,305.7 L260.5,303.0 L256.0,299.9 L251.9,296.7 L247.9,293.2 L244.1,289.4 L240.5,285.3 L237.2,281.1
		L234.3,276.7 L231.5,272.1 L229.1,267.3 L227.0,262.4 L225.1,257.4 L223.6,252.2 L222.5,247.1 L221.6,241.8
		L221.1,236.4 L221.0,231.0 L221.1,225.7 L221.6,220.3 L222.5,215.1 L223.6,209.9 L225.1,204.7 L227.0,199.7
		L229.1,194.8 L231.5,190.0 L234.2,185.4 L237.2,181.0 L240.5,176.8 L244.1,172.7 L247.9,168.9 L251.9,165.4
		L256.1,162.2 L260.5,159.1 L265.1,156.4 L269.9,154.0 L274.8,151.8 L279.9,150.0 L284.9,148.6 L290.2,147.4
		L295.5,146.5 L300.8,146.0 L306.2,145.9 L311.5,146.0 L316.8,146.5 L322.1,147.4 L327.3,148.5 L332.5,150.0
		L337.5,151.9 L342.4,154.0 L347.2,156.4 L351.8,159.1 L356.2,162.1 L360.5,165.4 L364.5,169.0 L368.3,172.8
		L371.8,176.7 L375.0,181.0 L378.1,185.4 L380.8,190.0 L383.2,194.8 L385.4,199.7 L387.1,204.7 L388.6,209.8
		L389.8,215.1 L390.7,220.4 L391.2,225.7 L391.3,231.1 L391.2,236.4 L390.7,241.7 L389.8,247.0 L388.7,252.2
		L387.2,257.4 L385.3,262.4 L383.2,267.3 L380.8,272.1 L378.1,276.7 L375.1,281.1 L371.8,285.4 L368.2,289.4
		L364.5,293.1 L360.5,296.7 L356.2,300.0 L351.8,303.0 L347.2,305.7 L342.4,308.1 L337.5,310.2 L332.5,312.1
		L327.3,313.6 L322.1,314.7 L316.8,315.6 L311.5,316.1 L306.2,316.2 L300.8,316.1 L295.5,315.6 L290.2,314.7
		L284.9,313.5 L279.8,312.0 L274.8,310.3 L269.9,308.1 L265.1,305.7 L260.5,303.0 L256.1,299.9 L251.8,296.7
		L247.9,293.2 L244.1,289.4 L240.5,285.3 L237.2,281.1 L234.2,276.7 L231.5,272.0 L229.1,267.3 L227.0,262.4
		L225.1,257.4 L223.6,252.2 L222.5,247.0 L221.6,241.7 L221.1,236.4 L221.0,231.1 L221.1,225.7 L221.6,220.4
		L222.5,215.1 L223.6,209.9 L225.1,204.8 L226.9,199.7 L229.1,194.8 L231.5,190.0 L234.2,185.4 L237.2,181.0
		L240.5,176.8 L244.0,172.7 L247.8,169.0 L251.9,165.4 L256.1,162.1 L260.5,159.2 L265.1,156.4 L269.9,154.0
		L274.8,151.9 L279.8,150.0 L285.0,148.5 L290.1,147.4 L295.4,146.5 L300.8,146.0 L306.2,145.9 L311.5,146.0
		L316.9,146.5 L322.1,147.4 L327.3,148.5 L332.5,150.0 L337.5,151.9 L342.4,154.0 L347.2,156.4 L351.8,159.1
		L356.2,162.1 L360.4,165.4 L364.5,169.0 L368.3,172.8 L371.8,176.8 L375.0,181.0 L378.1,185.4 L380.8,190.0
		L383.2,194.8 L385.4,199.7 L387.2,204.8 L388.6,209.8 L389.8,215.1 L390.7,220.4 L391.2,225.7 L391.3,231.1
		L391.2,236.4 L390.7,241.7 L389.8,247.0 L388.7,252.2 L387.2,257.4 L385.3,262.4 L383.2,267.3 L380.8,272.1
		L378.1,276.7 L375.1,281.1 L371.8,285.4 L368.2,289.4 L364.4,293.2 L360.5,296.7 L356.2,299.9 L351.8,303.0
		L347.2,305.7 L342.4,308.1 L337.5,310.3 L332.5,312.1 L327.4,313.5 L322.1,314.7 L316.8,315.6 L311.5,316.1
		L306.1,316.2 L300.8,316.1 L295.5,315.6 L290.2,314.7 L285.0,313.6 L279.8,312.1 L274.8,310.2 L269.9,308.1
		L265.1,305.7 L260.5,303.0 L256.1,300.0 L251.8,296.7 L247.8,293.1 L244.1,289.4 L240.5,285.4 L237.2,281.1
		L234.2,276.7 L231.5,272.1 L229.1,267.3 L227.0,262.4 L225.1,257.4 L223.6,252.2 L222.5,247.0 L221.6,241.7
		L221.1,236.4 L221.0,231.1 L221.1,225.7 L221.6,220.4 L222.5,215.1 L223.7,209.8 L225.2,204.7 L226.9,199.7
		L229.1,194.8 L231.5,190.0 L234.2,185.4 L237.3,181.0 L240.5,176.7 L244.0,172.8 L247.8,169.0 L251.9,165.4
		L256.1,162.1 L260.5,159.1 L265.1,156.4 L269.9,154.0 L274.8,151.9 L279.8,150.0 L285.0,148.5 L290.2,147.4
		L295.4,146.5 L300.8,146.0 L306.1,145.9 L311.5,146.0 L316.8,146.5 L322.1,147.4 L327.3,148.5 L332.4,150.0
		L337.5,151.8 L342.4,154.0 L347.2,156.4 L351.8,159.1 L356.2,162.1 L360.4,165.4 L364.5,168.9 L368.2,172.7
		L371.8,176.8 L375.1,181.0 L378.0,185.4 L380.8,190.0 L383.2,194.8 L385.3,199.7 L387.2,204.7 L388.7,209.9
		L389.8,215.1 L390.7,220.3 L391.2,225.7 L391.3,231.1 L391.2,236.4 L390.7,241.8 L389.8,247.0 L388.7,252.2
		L387.2,257.4 L385.3,262.4 L383.2,267.3 L380.8,272.1 L378.1,276.7 L375.1,281.1 L371.8,285.3 L368.2,289.4
		L364.4,293.2 L360.4,296.7 L356.2,299.9 L351.8,303.0 L347.2,305.7 L342.4,308.1 L337.5,310.3 L332.4,312.1
		L327.4,313.5 L322.1,314.7 L316.8,315.6 L311.5,316.1 L306.1,316.2 L300.8,316.1 L295.5,315.6 L290.2,314.7
		L285.0,313.6 L279.8,312.1 L274.8,310.2 L269.8,308.1 L265.1,305.7 L260.5,303.0 L256.1,300.0 L251.8,296.7
		L247.8,293.1 L244.0,289.3 L240.5,285.4 L237.2,281.1 L234.2,276.7 L231.5,272.1 L229.1,267.3 L226.9,262.4
		L225.1,257.4 L223.7,252.3 L222.5,247.0 L221.6,241.7 L221.1,236.4 L221.0,231.0 L221.1,225.7 L221.6,220.4
		L222.5,215.1 L223.6,209.9 L225.1,204.7 L227.0,199.7 L229.1,194.8 L231.5,190.0 L234.2,185.4 L237.2,181.0
		L240.5,176.7 L244.1,172.7 L247.8,169.0 L251.8,165.4 L256.1,162.1 L260.5,159.1 L265.1,156.4 L269.9,154.0
		L274.8,151.9 L279.8,150.0 L285.0,148.5 L290.2,147.4 L295.5,146.5 L300.8,146.0 L306.1,145.9 L311.5,146.0
		L316.8,146.5 L322.1,147.4 L327.4,148.6 L332.4,150.0 L337.5,151.8 L342.4,154.0 L347.2,156.4 L351.8,159.1
		L356.2,162.2 L360.4,165.4 L364.4,168.9 L368.2,172.7 L371.8,176.8 L375.1,181.0 L378.1,185.4 L380.8,190.0
		L383.2,194.8 L385.3,199.7 L387.2,204.7 L388.7,209.9 L389.8,215.1 L390.7,220.3 L391.2,225.7 L391.3,231.0
		L391.2,236.4 L390.7,241.7 L389.8,247.0 L388.7,252.2 L387.2,257.3 L385.4,262.4 L383.2,267.3 L380.8,272.1
		L378.1,276.7 L375.1,281.1 L371.8,285.3 L368.3,289.4 L364.5,293.1 L360.4,296.7 L356.2,300.0 L351.8,302.9
		L347.2,305.7 L342.4,308.1 L337.5,310.3 L332.5,312.1 L327.3,313.6 L322.1,314.7 L316.8,315.6 L311.5,316.1
		L306.1,316.2 L300.8,316.1 L295.4,315.6 L290.2,314.7 L285.0,313.6 L279.8,312.1 L274.8,310.2 L269.9,308.1
		L265.1,305.7 L260.5,303.0 L256.1,300.0 L251.9,296.7 L247.8,293.1 L244.0,289.3 L240.5,285.3 L237.3,281.1
		L234.2,276.7 L231.5,272.1 L229.1,267.3 L226.9,262.4 L225.1,257.3 L223.7,252.3 L222.5,247.0 L221.6,241.7
		L221.1,236.4 L221.0,231.0 L221.1,225.7 L221.6,220.4 L222.5,215.1 L223.6,209.9 L225.1,204.7 L227.0,199.7
		L229.1,194.7 L231.5,190.0 L234.2,185.4 L237.2,181.0 L240.5,176.7 L244.1,172.7 L247.9,168.9 L251.8,165.4
		L256.1,162.1 L260.5,159.1 L265.1,156.4 L269.9,154.0 L274.8,151.8 L279.8,150.0 L285.0,148.6 L290.2,147.4
		L295.5,146.5 L300.8,146.0 L306.2,145.9 L311.5,146.0 L316.8,146.5 L322.1,147.4 L327.3,148.5 L332.5,150.0
		L337.5,151.9 L342.4,154.0 L347.2,156.4 L351.8,159.1 L356.2,162.1 L360.5,165.4 L364.5,169.0 L368.2,172.7
		L371.8,176.7 L375.1,181.0 L378.1,185.4 L380.8,190.0 L383.2,194.7 L385.3,199.7 L387.2,204.7 L388.7,209.9
		L389.8,215.1 L390.7,220.4 L391.2,225.7 L391.3,231.0 L391.2,236.4 L390.7,241.7 L389.8,247.0 L388.6,252.3
		L387.2,257.3 L385.4,262.4 L383.2,267.3 L380.8,272.1 L378.1,276.7 L375.0,281.1 L371.8,285.3 L368.3,289.3
		L364.5,293.1 L360.4,296.7 L356.2,300.0 L351.8,303.0 L347.2,305.7 L342.4,308.1 L337.5,310.2 L332.5,312.1
		L327.3,313.6 L322.1,314.7 L316.9,315.6 L311.5,316.1 L306.2,316.2 L300.8,316.1 L295.5,315.6 L290.2,314.7
		L285.0,313.6 L279.9,312.1 L274.8,310.3 L269.9,308.1 L265.1,305.7 L260.5,303.0 L256.1,300.0 L251.9,296.7
		L247.8,293.1 L244.1,289.4 L240.5,285.3 L237.2,281.1 L234.2,276.7 L231.5,272.1 L229.1,267.3 L226.9,262.4
		L225.1,257.4 L223.6,252.2 L222.5,247.0 L221.6,241.7 L221.1,236.4 L221.0,231.0 L221.1,225.7 L221.6,220.3
		L222.5,215.1 L223.6,209.9 L225.1,204.7 L227.0,199.7 L229.1,194.8 L231.5,190.0 L234.2,185.4 L237.2,181.0
		L240.5,176.8 L244.1,172.7 L247.9,168.9 L251.9,165.4 L256.1,162.2 L260.5,159.1 L265.1,156.4 L269.9,154.0
		L274.8,151.8 L279.9,150.0 L284.9,148.6 L290.2,147.4 L295.5,146.5 L300.8,146.0 L306.2,145.9 L311.5,146.0
		L316.8,146.5 L322.1,147.4 L327.3,148.5 L332.5,150.0 L337.5,151.9 L342.5,154.0 L347.2,156.4 L351.8,159.1
		L356.2,162.1 L360.5,165.4 L364.5,169.0 L368.3,172.8 L371.8,176.7 L375.1,181.0 L378.1,185.4 L380.8,190.0
		L383.2,194.8 L385.4,199.7 L387.2,204.7 L388.7,209.9 L389.8,215.1 L390.7,220.4 L391.2,225.7 L391.3,231.1
		L391.2,236.4 L390.7,241.7 L389.8,247.0 L388.7,252.2 L387.2,257.4 L385.4,262.4 L383.2,267.3 L380.8,272.1
		L378.1,276.7 L375.1,281.1 L371.8,285.4 L368.3,289.3 L364.5,293.1 L360.5,296.7 L356.2,300.0 L351.8,303.0
		L347.2,305.7 L342.5,308.1 L337.5,310.2 L332.5,312.1 L327.3,313.6 L322.1,314.7 L316.8,315.6 L311.5,316.1
		L306.2,316.2 L300.8,316.1 L295.5,315.6 L290.2,314.7 L284.9,313.5 L279.9,312.1 L274.8,310.3 L269.9,308.1
		L265.1,305.7 L260.5,303.0 L256.1,299.9 L251.9,296.7 L247.9,293.2 L244.1,289.4 L240.5,285.3 L237.2,281.1
		L234.2,276.7 L231.5,272.1 L229.1,267.3 L227.0,262.4 L225.1,257.4 L223.6,252.2 L222.5,247.0 L221.6,241.8
		L221.1,236.4 L221.0,231.1 L221.1,225.7 L221.6,220.4 L222.5,215.1 L223.6,209.9 L225.1,204.7 L226.9,199.7
		L229.1,194.8 L231.5,190.0 L234.2,185.4 L237.2,181.0 L240.5,176.8 L244.1,172.7 L247.8,169.0 L251.9,165.4
		L256.1,162.1 L260.5,159.1 L265.1,156.4 L269.9,154.0 L274.8,151.8 L279.8,150.0 L285.0,148.5 L290.2,147.4
		L295.5,146.5 L300.8,146.0 L306.2,145.9 L311.5,146.0 L316.9,146.5 L322.1,147.4 L327.3,148.5 L332.5,150.0
		L337.5,151.9 L342.4,154.0 L347.2,156.4 L351.8,159.1 L356.2,162.1 L360.4,165.4 L364.5,169.0 L368.3,172.8
		L371.8,176.8 L375.0,181.0 L378.1,185.4 L380.8,190.0 L383.2,194.8 L385.4,199.7 L387.2,204.8 L388.6,209.8
		L389.8,215.1 L390.7,220.4 L391.2,225.7 L391.3,231.1 L391.2,236.4 L390.7,241.7 L389.8,247.0 L388.7,252.2
		L387.2,257.4 L385.3,262.4 L383.2,267.4 L380.8,272.1 L378.1,276.7 L375.1,281.1 L371.8,285.4 L368.2,289.4
		L364.4,293.2 L360.5,296.7 L356.2,300.0 L351.8,303.0 L347.2,305.7 L342.4,308.1 L337.5,310.2 L332.5,312.1
		L327.3,313.6 L322.1,314.7 L316.8,315.6 L311.5,316.1 L306.2,316.2 L300.8,316.1 L295.5,315.6 L290.2,314.7
		L285.0,313.5 L279.8,312.1 L274.8,310.3 L269.9,308.1 L265.1,305.7 L260.5,303.0 L256.1,300.0 L251.8,296.7
		L247.9,293.2 L244.1,289.4 L240.5,285.4 L237.2,281.1 L234.2,276.7 L231.5,272.1 L229.1,267.4 L227.0,262.4
		L225.1,257.4 L223.6,252.2 L222.5,247.0 L221.6,241.7 L221.1,236.4 L221.0,231.1 L221.1,225.7 L221.6,220.4
		L222.5,215.1 L223.7,209.8 L225.1,204.8 L226.9,199.7 L229.1,194.8 L231.5,190.0 L234.2,185.4 L237.3,181.0
		L240.5,176.8 L244.0,172.8 L247.8,169.0 L251.9,165.4 L256.1,162.1 L260.5,159.1 L265.1,156.4 L269.9,154.0
		L274.8,151.9 L279.8,150.0 L285.0,148.5 L290.2,147.4 L295.4,146.5 L300.8,146.0 L306.1,145.9 L311.5,146.0
		L316.8,146.5 L322.1,147.4 L327.3,148.5 L332.5,150.0 L337.5,151.8 L342.4,154.0 L347.2,156.4 L351.8,159.1
		L356.2,162.1 L360.4,165.4 L364.5,169.0 L368.2,172.7 L371.8,176.8 L375.1,181.0 L378.1,185.4 L380.8,190.0
		L383.2,194.8 L385.4,199.7 L387.2,204.8 L388.7,209.9 L389.8,215.1 L390.7,220.4 L391.2,225.7 L391.3,231.1
		L391.2,236.4 L390.7,241.8 L389.8,247.0 L388.7,252.2 L387.2,257.4 L385.3,262.4 L383.2,267.3 L380.8,272.1
		L378.1,276.7 L375.1,281.1 L371.8,285.3 L368.2,289.4 L364.4,293.2 L360.4,296.7 L356.2,299.9 L351.8,303.0
		L347.2,305.7 L342.4,308.1 L337.5,310.3 L332.4,312.1 L327.4,313.5 L322.1,314.7 L316.8,315.6 L311.5,316.1
		L306.1,316.2 L300.8,316.1 L295.5,315.6 L290.2,314.7 L285.0,313.6 L279.8,312.1 L274.8,310.2 L269.9,308.1
		L265.1,305.7 L260.5,303.0 L256.1,300.0 L251.8,296.7 L247.8,293.1 L244.1,289.4 L240.5,285.4 L237.2,281.1
		L234.2,276.7 L231.5,272.1 L229.1,267.3 L227.0,262.4 L225.1,257.4 L223.6,252.2 L222.5,247.0 L221.6,241.7
		L221.1,236.4 L221.0,231.1 L221.1,225.7 L221.6,220.4 L222.5,215.1 L223.7,209.8 L225.1,204.7 L226.9,199.7
		L229.1,194.8 L231.5,190.0 L234.2,185.4 L237.2,181.0 L240.5,176.7 L244.0,172.8 L247.8,169.0 L251.8,165.4
		L256.1,162.1 L260.5,159.1 L265.1,156.4 L269.8,154.0 L274.8,151.9 L279.8,150.0 L285.0,148.5 L290.2,147.4
		L295.5,146.5 L300.8,146.0 L306.1,145.9  '/></g>
	</g>
	<g id="gnuplot_plot_2" ><title>gnuplot_plot_2</title>
<g fill="none" color="black" stroke="currentColor" stroke-width="1.00" stroke-linecap="butt" stroke-linejoin="miter">
	<use xlink:href='#gpPt0' transform='translate(306.2,231.0) scale(4.50)' color='rgb(148,   0, 211)'/>
</g>
	</g>
<g fill="none" color="#FFFFFF" stroke="rgb(148,   0, 211)" stroke-width="2.00" stroke-linecap="butt" stroke-linejoin="miter">
</g>
<g fill="none" color="black" stroke="currentColor" stroke-width="2.00" stroke-linecap="butt" stroke-linejoin="miter">
</g>
<g fill="none" color="black" stroke="black" stroke-width="1.00" stroke-linecap="butt" stroke-linejoin="miter">
</g>
<g fill="none" color="black" stroke="currentColor" stroke-width="1.00" stroke-linecap="butt" stroke-linejoin="miter">
	<path stroke='black'  d='M93.2,18.1 L93.2,444.0 L519.1,444.0 L519.1,18.1 L93.2,18.1 Z  '/></g>
<g fill="none" color="black" stroke="currentColor" stroke-width="1.00" stroke-linecap="butt" stroke-linejoin="miter">
</g>
</g>
</svg>

