# x my_cos math_cos
0.0000 1.0000 1.0000
0.1257 0.9921 0.9921
0.2513 0.9686 0.9686
0.3770 0.9298 0.9298
0.5027 0.8763 0.8763
0.6283 0.8090 0.8090
0.7540 0.7290 0.7290
0.8796 0.6374 0.6374
1.0053 0.5358 0.5358
1.1310 0.4258 0.4258
1.2566 0.3090 0.3090
1.3823 0.1874 0.1874
1.5080 0.0628 0.0628
1.6336 -0.0628 -0.0628
1.7593 -0.1874 -0.1874
1.8850 -0.3090 -0.3090
2.0106 -0.4258 -0.4258
2.1363 -0.5358 -0.5358
2.2619 -0.6374 -0.6374
2.3876 -0.7290 -0.7290
2.5133 -0.8090 -0.8090
2.6389 -0.8763 -0.8763
2.7646 -0.9298 -0.9298
2.8903 -0.9686 -0.9686
3.0159 -0.9921 -0.9921
3.1416 -1.0000 -1.0000
3.2673 -0.9921 -0.9921
3.3929 -0.9686 -0.9686
3.5186 -0.9298 -0.9298
3.6442 -0.8763 -0.8763
3.7699 -0.8090 -0.8090
3.8956 -0.7290 -0.7290
4.0212 -0.6374 -0.6374
4.1469 -0.5358 -0.5358
4.2726 -0.4258 -0.4258
4.3982 -0.3090 -0.3090
4.5239 -0.1874 -0.1874
4.6496 -0.0628 -0.0628
4.7752 0.0628 0.0628
4.9009 0.1874 0.1874
5.0265 0.3090 0.3090
5.1522 0.4258 0.4258
5.2779 0.5358 0.5358
5.4035 0.6374 0.6374
5.5292 0.7290 0.7290
5.6549 0.8090 0.8090
5.7805 0.8763 0.8763
5.9062 0.9298 0.9298
6.0319 0.9686 0.9686
6.1575 0.9921 0.9921
6.2832 1.0000 1.0000
6.4088 0.9921 0.9921
6.5345 0.9686 0.9686
6.6602 0.9298 0.9298
6.7858 0.8763 0.8763
6.9115 0.8090 0.8090
7.0372 0.7290 0.7290
7.1628 0.6374 0.6374
7.2885 0.5358 0.5358
7.4142 0.4258 0.4258
7.5398 0.3090 0.3090
7.6655 0.1874 0.1874
7.7911 0.0628 0.0628
7.9168 -0.0628 -0.0628
8.0425 -0.1874 -0.1874
8.1681 -0.3090 -0.3090
8.2938 -0.4258 -0.4258
8.4195 -0.5358 -0.5358
8.5451 -0.6374 -0.6374
8.6708 -0.7290 -0.7290
8.7965 -0.8090 -0.8090
8.9221 -0.8763 -0.8763
9.0478 -0.9298 -0.9298
9.1735 -0.9686 -0.9686
9.2991 -0.9921 -0.9921
9.4248 -1.0000 -1.0000
9.5504 -0.9921 -0.9921
9.6761 -0.9686 -0.9686
9.8018 -0.9298 -0.9298
9.9274 -0.8763 -0.8763
10.0531 -0.8090 -0.8090
10.1788 -0.7290 -0.7290
10.3044 -0.6374 -0.6374
10.4301 -0.5358 -0.5358
10.5558 -0.4258 -0.4258
10.6814 -0.3090 -0.3090
10.8071 -0.1874 -0.1874
10.9327 -0.0628 -0.0628
11.0584 0.0628 0.0628
11.1841 0.1874 0.1874
11.3097 0.3090 0.3090
11.4354 0.4258 0.4258
11.5611 0.5358 0.5358
11.6867 0.6374 0.6374
11.8124 0.7290 0.7290
11.9381 0.8090 0.8090
12.0637 0.8763 0.8763
12.1894 0.9298 0.9298
12.3150 0.9686 0.9686
12.4407 0.9921 0.9921
12.5664 1.0000 1.0000
