\relax 
\@writefile{toc}{\contentsline {section}{\numberline {1}Exerisce 12}{1}}
\@writefile{lof}{\contentsline {figure}{\numberline {1}{\ignorespaces Cosine has been found by solving an ODE with GSL and comparted with the real thing.}}{1}}
